# Fdb version 3
["bibtex main"] 1609521914 "main.aux" "main.bbl" "main" 1609521914
  "/usr/local/share/texmf-dist/bibtex/bst/dinat/dinat.bst" 1136766823 44478 8171722d387d8657f0397923511dcd08 ""
  "literature/library.bib" 1557277237 459 24ac46792fd0cd8813096876923faf56 ""
  "main.aux" 1609521892 24930 4283df1ba52b598eba9767faf737d43c ""
  "main.bcf" 0 -1 0 ""
  (generated)
  "main.bbl"
["makeindex main.idx"] 1609521914 "main.idx" "main.ind" "main" 1609521914
  "main.idx" 1609521891 0 d41d8cd98f00b204e9800998ecf8427e ""
  (generated)
  "main.ind"
["pdflatex"] 1609521914 "main.tex" "main.pdf" "main" 1609521914
  "./main.out" 1609521915 6307 1ba4399c7bd58213408e7476e499c65e ""
  "/usr/local/share/texmf-dist/fonts/map/fontname/texfonts.map" 1272929888 3287 e6b82fe08f5336d4d5ebc73fb1152e87 ""
  "/usr/local/share/texmf-dist/fonts/tfm/adobe/ncntrsbk/pncb8c.tfm" 1136768653 1340 816e7105c40795c3b69ca662d3690dd4 ""
  "/usr/local/share/texmf-dist/fonts/tfm/adobe/ncntrsbk/pncb8r.tfm" 1136768653 3220 7b5d1a9569a08754f1bdfbc1c7ad8dbd ""
  "/usr/local/share/texmf-dist/fonts/tfm/adobe/ncntrsbk/pncb8t.tfm" 1136768653 4708 5672efb2ed6c1b68de999c866a8495e6 ""
  "/usr/local/share/texmf-dist/fonts/tfm/adobe/ncntrsbk/pncbi8r.tfm" 1136768653 4932 c77caef07d466ba7be85d13700fe3270 ""
  "/usr/local/share/texmf-dist/fonts/tfm/adobe/ncntrsbk/pncr8c.tfm" 1136768653 1336 990dabf7f4b96ad32afebd2a44ddc16b ""
  "/usr/local/share/texmf-dist/fonts/tfm/adobe/ncntrsbk/pncr8r.tfm" 1136768653 3824 751120f38c7d75d9c97b0c36843f69c8 ""
  "/usr/local/share/texmf-dist/fonts/tfm/adobe/ncntrsbk/pncr8t.tfm" 1136768653 5528 f11a9be4ef5afdd9fcc60e3a5281f872 ""
  "/usr/local/share/texmf-dist/fonts/tfm/adobe/ncntrsbk/pncrc8t.tfm" 1136768653 11852 3cf6d905af2b461b401aaf9ba7195173 ""
  "/usr/local/share/texmf-dist/fonts/tfm/adobe/ncntrsbk/pncri8r.tfm" 1136768653 4148 d6b2047022c721a25d78978eed00b200 ""
  "/usr/local/share/texmf-dist/fonts/tfm/adobe/ncntrsbk/pncri8t.tfm" 1136768653 6064 8a12cb133dbc46cc2aebc9327349f0ba ""
  "/usr/local/share/texmf-dist/fonts/tfm/jknappen/ec/ecrm1095.tfm" 1136768653 3584 929cdff2b7a8c11bd4d49fd68cb0ae70 ""
  "/usr/local/share/texmf-dist/fonts/tfm/jknappen/ec/ecsi0600.tfm" 1136768653 3584 812f7e2de5681b983f3aeaadd29c79b6 ""
  "/usr/local/share/texmf-dist/fonts/tfm/jknappen/ec/ecsi0800.tfm" 1136768653 3584 3dfe0566d0b48ead5866d1b455f67a43 ""
  "/usr/local/share/texmf-dist/fonts/tfm/jknappen/ec/ecsi1095.tfm" 1136768653 3584 1a0353d13d3e702865b76e3b1c321b5b ""
  "/usr/local/share/texmf-dist/fonts/tfm/jknappen/ec/ecss0600.tfm" 1136768653 3584 29c1411d292c531bfea559d981c42321 ""
  "/usr/local/share/texmf-dist/fonts/tfm/jknappen/ec/ecss0800.tfm" 1136768653 3584 885a9b5d0df19657ad7066a0c4430437 ""
  "/usr/local/share/texmf-dist/fonts/tfm/jknappen/ec/ecss1095.tfm" 1136768653 3584 8ece407347b270c252c46fdfaef5a9ef ""
  "/usr/local/share/texmf-dist/fonts/tfm/jknappen/ec/tcss1095.tfm" 1136768653 1536 f0fa079cdc83a6ffeda21e42352cf1ea ""
  "/usr/local/share/texmf-dist/fonts/tfm/public/amsfonts/symbols/msam10.tfm" 1246382020 916 f87d7c45f9c908e672703b83b72241a3 ""
  "/usr/local/share/texmf-dist/fonts/tfm/public/amsfonts/symbols/msam7.tfm" 1246382020 928 2dc8d444221b7a635bb58038579b861a ""
  "/usr/local/share/texmf-dist/fonts/tfm/public/amsfonts/symbols/msbm10.tfm" 1246382020 908 2921f8a10601f252058503cc6570e581 ""
  "/usr/local/share/texmf-dist/fonts/tfm/public/amsfonts/symbols/msbm7.tfm" 1246382020 940 228d6584342e91276bf566bcf9716b83 ""
  "/usr/local/share/texmf-dist/fonts/tfm/public/cm/cmr10.tfm" 1136768653 1296 45809c5a464d5f32c8f98ba97c1bb47f ""
  "/usr/local/share/texmf-dist/fonts/tfm/public/cm/cmss10.tfm" 1136768653 1316 b636689f1933f24d1294acdf6041daaa ""
  "/usr/local/share/texmf-dist/fonts/tfm/public/cm/cmss12.tfm" 1136768653 1324 37b971caf729d7edd9cbb9f9b0ea76eb ""
  "/usr/local/share/texmf-dist/fonts/tfm/public/cm/cmss17.tfm" 1136768653 1320 ed93d62c5f2c16343826001f03341dbc ""
  "/usr/local/share/texmf-dist/fonts/tfm/public/cm/cmss8.tfm" 1136768653 1296 d77f431d10d47c8ea2cc18cf45346274 ""
  "/usr/local/share/texmf-dist/fonts/tfm/public/cm/cmtt10.tfm" 1136768653 768 1321e9409b4137d6fb428ac9dc956269 ""
  "/usr/local/share/texmf-dist/fonts/tfm/public/cm/cmtt12.tfm" 1136768653 772 9a936b7f5e2ff0557fce0f62822f0bbf ""
  "/usr/local/share/texmf-dist/fonts/tfm/public/cm/cmtt8.tfm" 1136768653 768 d7b9a2629a0c353102ad947dc9221d49 ""
  "/usr/local/share/texmf-dist/fonts/tfm/public/esint/esint10.tfm" 1136768653 364 55557743e6c24ee44e49bc5e8dbbe3cd ""
  "/usr/local/share/texmf-dist/fonts/tfm/public/fourier/fourier-bb.tfm" 1136768653 560 af53a501c08f2f2cbf74fa511e7dbc5c ""
  "/usr/local/share/texmf-dist/fonts/tfm/public/fourier/fourier-mcl.tfm" 1136768653 620 19c124db3cfab09e2a270e93c0b94c1c ""
  "/usr/local/share/texmf-dist/fonts/tfm/public/fourier/fourier-mex.tfm" 1136768653 1544 661995f02f3b10e57bb96f5c64c940e4 ""
  "/usr/local/share/texmf-dist/fonts/tfm/public/fourier/fourier-ml.tfm" 1136768653 1120 281c7872a1f3fc686c053051e921a432 ""
  "/usr/local/share/texmf-dist/fonts/tfm/public/fourier/fourier-mlb.tfm" 1136768653 1120 19cb17d4624fc3e599a7a284c4dbadca ""
  "/usr/local/share/texmf-dist/fonts/tfm/public/fourier/fourier-mlit.tfm" 1136768653 1076 2f8bbd0154a18a0fd665f046ebdfecb3 ""
  "/usr/local/share/texmf-dist/fonts/tfm/public/fourier/fourier-mlitb.tfm" 1136768653 1092 3944a0e5fd5fc85174f9250ee7f38b90 ""
  "/usr/local/share/texmf-dist/fonts/tfm/public/fourier/fourier-ms.tfm" 1136768653 1184 c045430d3c50e3ac06be4ea09e23cd04 ""
  "/usr/local/share/texmf-dist/fonts/tfm/public/fouriernc/fncmi.tfm" 1177591358 1368 99619f7bc8a4a375fcb21bf87f7e8b17 ""
  "/usr/local/share/texmf-dist/fonts/tfm/public/fouriernc/fncmib.tfm" 1365116404 1356 2ab01e176003f1cde6d1c0c19facaf61 ""
  "/usr/local/share/texmf-dist/fonts/tfm/public/fouriernc/fncmii.tfm" 1177591358 1704 843e3f158d760e961a55e682635af76d ""
  "/usr/local/share/texmf-dist/fonts/tfm/public/fouriernc/fncmiib.tfm" 1177591358 1728 ec043b8e0eb76fb0b9e8f68ed81eab52 ""
  "/usr/local/share/texmf-dist/fonts/tfm/public/fouriernc/fncsy.tfm" 1177591358 1468 cf5c4cb2bf4b2c1807b5813f5820e2dd ""
  "/usr/local/share/texmf-dist/fonts/vf/adobe/ncntrsbk/pncb8c.vf" 1136768653 3556 235f823e81e3e058db3365fecbf6b61b ""
  "/usr/local/share/texmf-dist/fonts/vf/adobe/ncntrsbk/pncb8t.vf" 1136768653 2352 364e27135b71dfb69f651531b556c009 ""
  "/usr/local/share/texmf-dist/fonts/vf/adobe/ncntrsbk/pncr8c.vf" 1136768653 3556 d62234d895fc58316ef3155c185e700f ""
  "/usr/local/share/texmf-dist/fonts/vf/adobe/ncntrsbk/pncr8t.vf" 1136768653 2348 ea2f0e84361777bc0fecbbff98dffa71 ""
  "/usr/local/share/texmf-dist/fonts/vf/adobe/ncntrsbk/pncrc8t.vf" 1136768653 3604 5a8ac850b219845dafa11eeada1057d1 ""
  "/usr/local/share/texmf-dist/fonts/vf/adobe/ncntrsbk/pncri8t.vf" 1136768653 2324 9b16fb95256c525932108ef5cb64f427 ""
  "/usr/local/share/texmf-dist/fonts/vf/public/fouriernc/fncmi.vf" 1177591358 1240 69e3269ccbe499f138263bd875bfff8e ""
  "/usr/local/share/texmf-dist/fonts/vf/public/fouriernc/fncmii.vf" 1177591358 1364 75e4e4f0dd1b9063a2bbe605af4fccf5 ""
  "/usr/local/share/texmf-dist/fonts/vf/public/fouriernc/fncmiib.vf" 1177591358 1364 8fa81f81ab79e36c797049abfb7b30db ""
  "/usr/local/share/texmf-dist/fonts/vf/public/fouriernc/fncsy.vf" 1177591358 1244 3910ad12298c013d192e08240b1b200b ""
  "/usr/local/share/texmf-dist/tex/context/base/supp-pdf.mkii" 1337017135 71627 94eb9990bed73c364d7f53f960cc8c5b ""
  "/usr/local/share/texmf-dist/tex/generic/ifxetex/ifxetex.sty" 1284331290 1458 43ab4710dc82f3edeabecd0d099626b2 ""
  "/usr/local/share/texmf-dist/tex/generic/oberdiek/gettitlestring.sty" 1303254447 8237 52810bdb4db2270e717422560a104aea ""
  "/usr/local/share/texmf-dist/tex/generic/oberdiek/hobsub-generic.sty" 1338332114 189108 8b3553a56c83ff61acecb36b75d817e2 ""
  "/usr/local/share/texmf-dist/tex/generic/oberdiek/hobsub-hyperref.sty" 1338332114 70752 45fa392800e07da61fa13446ad46b34d ""
  "/usr/local/share/texmf-dist/tex/generic/oberdiek/infwarerr.sty" 1335995445 8253 3bdedc8409aa5d290a2339be6f09af03 ""
  "/usr/local/share/texmf-dist/tex/generic/oberdiek/ltxcmds.sty" 1335995445 18425 775b341047ce304520cc7c11ca41392e ""
  "/usr/local/share/texmf-dist/tex/generic/oberdiek/se-pdfdoc.def" 1335995445 5005 36d934d8d53d57238b512bf34c64c0e6 ""
  "/usr/local/share/texmf-dist/tex/generic/oberdiek/stringenc.sty" 1335995445 21411 70ecd8a9f06f9e1b670126554a62ea3e ""
  "/usr/local/share/texmf-dist/tex/generic/pgf/basiclayer/pgfcore.code.tex" 1288312291 1006 b103be0bfc8c1682ff1fa9760697a329 ""
  "/usr/local/share/texmf-dist/tex/generic/pgf/basiclayer/pgfcorearrows.code.tex" 1393459310 42678 ea82fd948b4303ce6a2c8e25d5e8f8aa ""
  "/usr/local/share/texmf-dist/tex/generic/pgf/basiclayer/pgfcoreexternal.code.tex" 1393459310 19287 b2041c22301def2360f03c004d16068d ""
  "/usr/local/share/texmf-dist/tex/generic/pgf/basiclayer/pgfcoregraphicstate.code.tex" 1393459310 6653 6c617c4a5106d9f40e3d70946ba4e0ac ""
  "/usr/local/share/texmf-dist/tex/generic/pgf/basiclayer/pgfcoreimage.code.tex" 1393459310 7041 a891ad72049e17c4e366c40ca37b0ccb ""
  "/usr/local/share/texmf-dist/tex/generic/pgf/basiclayer/pgfcorelayers.code.tex" 1393459310 4625 40c07e9f6f2f7c674704b3f2055560ce ""
  "/usr/local/share/texmf-dist/tex/generic/pgf/basiclayer/pgfcoreobjects.code.tex" 1203877327 2631 7eefa6cdbefd8d4e2bad7262cf1094cd ""
  "/usr/local/share/texmf-dist/tex/generic/pgf/basiclayer/pgfcorepathconstruct.code.tex" 1393459310 43477 81143b33d9ebafdeead07ede13372427 ""
  "/usr/local/share/texmf-dist/tex/generic/pgf/basiclayer/pgfcorepathprocessing.code.tex" 1393459310 17436 8d99d4113be311daf23deff86991ee7d ""
  "/usr/local/share/texmf-dist/tex/generic/pgf/basiclayer/pgfcorepathusage.code.tex" 1393459310 20857 256da99fc70ea570aad1d50fdfd51464 ""
  "/usr/local/share/texmf-dist/tex/generic/pgf/basiclayer/pgfcorepatterns.code.tex" 1393459310 9641 711f0edc22c180a5caf168b6e8970057 ""
  "/usr/local/share/texmf-dist/tex/generic/pgf/basiclayer/pgfcorepoints.code.tex" 1393459310 34516 658a71478d21df554bce9d9cd436203a ""
  "/usr/local/share/texmf-dist/tex/generic/pgf/basiclayer/pgfcorequick.code.tex" 1288312291 3052 e5672c657232fd63b0a9853b0746297c ""
  "/usr/local/share/texmf-dist/tex/generic/pgf/basiclayer/pgfcorescopes.code.tex" 1393459310 16849 86fed972a2b3ad61208a6422e104bf26 ""
  "/usr/local/share/texmf-dist/tex/generic/pgf/basiclayer/pgfcoreshade.code.tex" 1393459310 21541 4cd19f8ff7dd74d5aa7d803a6397af84 ""
  "/usr/local/share/texmf-dist/tex/generic/pgf/basiclayer/pgfcoretransformations.code.tex" 1393459310 17423 a0f09c822b83b65445bc3ac25542dcc6 ""
  "/usr/local/share/texmf-dist/tex/generic/pgf/basiclayer/pgfcoretransparency.code.tex" 1393459310 8943 2e2495b057f8f0035b5568394d489963 ""
  "/usr/local/share/texmf-dist/tex/generic/pgf/frontendlayer/tikz/libraries/tikzlibraryarrows.code.tex" 1203727794 437 cf40f841f40822be6cb995f8b47112fd ""
  "/usr/local/share/texmf-dist/tex/generic/pgf/frontendlayer/tikz/libraries/tikzlibrarydecorations.code.tex" 1393459310 5484 4bb4a5cbbd05d6f17a261b59dbd014f1 ""
  "/usr/local/share/texmf-dist/tex/generic/pgf/frontendlayer/tikz/libraries/tikzlibrarydecorations.pathmorphing.code.tex" 1203727794 319 d246cee5ce1aaf2afe558acd4731d5ba ""
  "/usr/local/share/texmf-dist/tex/generic/pgf/frontendlayer/tikz/libraries/tikzlibrarydecorations.pathreplacing.code.tex" 1288312291 1255 7940bad47e253420d587a4a875c7c06c ""
  "/usr/local/share/texmf-dist/tex/generic/pgf/frontendlayer/tikz/libraries/tikzlibraryplotmarks.code.tex" 1203727794 443 6742ac279d940e87725265f9145ed090 ""
  "/usr/local/share/texmf-dist/tex/generic/pgf/frontendlayer/tikz/libraries/tikzlibrarypositioning.code.tex" 1288312291 4034 0a8cd33cf30d262ec971380666acb2d0 ""
  "/usr/local/share/texmf-dist/tex/generic/pgf/frontendlayer/tikz/libraries/tikzlibrarytopaths.code.tex" 1288312291 11599 d694704a88e2f9007c996d3a6a4d629c ""
  "/usr/local/share/texmf-dist/tex/generic/pgf/frontendlayer/tikz/tikz.code.tex" 1393459310 175287 31eb66e838dd5e10589736193a31943c ""
  "/usr/local/share/texmf-dist/tex/generic/pgf/libraries/decorations/pgflibrarydecorations.pathmorphing.code.tex" 1288312291 8854 7be3c3b9eb0de90885a881085ce8e118 ""
  "/usr/local/share/texmf-dist/tex/generic/pgf/libraries/decorations/pgflibrarydecorations.pathreplacing.code.tex" 1288312291 7089 02ec01183269fb6991e0be82d034128a ""
  "/usr/local/share/texmf-dist/tex/generic/pgf/libraries/pgflibraryarrows.code.tex" 1393459310 31927 7acd27f90dd95ce67ad32166cd0b95ec ""
  "/usr/local/share/texmf-dist/tex/generic/pgf/libraries/pgflibraryfpu.code.tex" 1393459310 65978 3f49ea85b3e396e3560678d1a548baeb ""
  "/usr/local/share/texmf-dist/tex/generic/pgf/libraries/pgflibraryplothandlers.code.tex" 1393459310 32969 dbcfd5a7de6a0f7255c333ef60287d59 ""
  "/usr/local/share/texmf-dist/tex/generic/pgf/libraries/pgflibraryplotmarks.code.tex" 1393459310 14199 2158f2770835a26274ae2f9fcbd179d1 ""
  "/usr/local/share/texmf-dist/tex/generic/pgf/math/pgfmath.code.tex" 1393459310 454 9e9e7c99f4da4f41698be21eaef4938e ""
  "/usr/local/share/texmf-dist/tex/generic/pgf/math/pgfmathcalc.code.tex" 1393459310 13416 940ea6971d7a65dc440d3479939c66ae ""
  "/usr/local/share/texmf-dist/tex/generic/pgf/math/pgfmathfloat.code.tex" 1393459310 91879 5b3cc8d94c47a5b742393a410f298724 ""
  "/usr/local/share/texmf-dist/tex/generic/pgf/math/pgfmathfunctions.base.code.tex" 1393459310 9375 5adc70f722abd29fc250d59e0694b548 ""
  "/usr/local/share/texmf-dist/tex/generic/pgf/math/pgfmathfunctions.basic.code.tex" 1393459310 21406 80daebd1f9f6a174d8dc77c5bc931bf4 ""
  "/usr/local/share/texmf-dist/tex/generic/pgf/math/pgfmathfunctions.code.tex" 1393459310 7820 5140d142921f39003e02ccedd072823a ""
  "/usr/local/share/texmf-dist/tex/generic/pgf/math/pgfmathfunctions.comparison.code.tex" 1288312291 3534 c7f28fbac13616513e513efe93b8569b ""
  "/usr/local/share/texmf-dist/tex/generic/pgf/math/pgfmathfunctions.integerarithmetics.code.tex" 1393459310 3167 7c9394e79aac27db96a92f9b2792b858 ""
  "/usr/local/share/texmf-dist/tex/generic/pgf/math/pgfmathfunctions.misc.code.tex" 1393459310 9165 99b6966558714c44c0b5ee44ae261ffc ""
  "/usr/local/share/texmf-dist/tex/generic/pgf/math/pgfmathfunctions.random.code.tex" 1288312291 6964 d4b5e82dabddda1c728063bb9c8a22ba ""
  "/usr/local/share/texmf-dist/tex/generic/pgf/math/pgfmathfunctions.round.code.tex" 1288312291 2688 139c6abc86761a6190c2f4bef5d752be ""
  "/usr/local/share/texmf-dist/tex/generic/pgf/math/pgfmathfunctions.trigonometric.code.tex" 1393459310 91075 1c1d7a7e8f0f737f72aa8becf0b37136 ""
  "/usr/local/share/texmf-dist/tex/generic/pgf/math/pgfmathparser.code.tex" 1393459310 33289 b041d55e91f7382603e2dca6f9ad188d ""
  "/usr/local/share/texmf-dist/tex/generic/pgf/math/pgfmathutil.code.tex" 1393459310 7099 f44d505bae6c7c2b933cdd63441db4b9 ""
  "/usr/local/share/texmf-dist/tex/generic/pgf/modules/pgfmoduledecorations.code.tex" 1393459310 71902 658cc1e13f73daec4225b8fc1c27600b ""
  "/usr/local/share/texmf-dist/tex/generic/pgf/modules/pgfmodulematrix.code.tex" 1393459310 20934 2328bd2e04520e1ab077ac4ee13b8935 ""
  "/usr/local/share/texmf-dist/tex/generic/pgf/modules/pgfmoduleplot.code.tex" 1393459310 15785 e0b14c447df00370d2023fd5c9813190 ""
  "/usr/local/share/texmf-dist/tex/generic/pgf/modules/pgfmoduleshapes.code.tex" 1393459310 42336 b13cf09dc317c76a2b165a8501d871cf ""
  "/usr/local/share/texmf-dist/tex/generic/pgf/systemlayer/pgf.cfg" 1288312291 978 15af626ebd3d4d790aac19170dac04f2 ""
  "/usr/local/share/texmf-dist/tex/generic/pgf/systemlayer/pgfsys-common-pdf.def" 1393459310 5437 d91f93ed61ecdc57e119849b2d784a0b ""
  "/usr/local/share/texmf-dist/tex/generic/pgf/systemlayer/pgfsys-pdftex.def" 1393459310 11969 518d66d5b5e20471ba00709ef9c2b267 ""
  "/usr/local/share/texmf-dist/tex/generic/pgf/systemlayer/pgfsys.code.tex" 1393459310 34488 3bab2022cdd1acab0cd383d8a0ad641b ""
  "/usr/local/share/texmf-dist/tex/generic/pgf/systemlayer/pgfsysprotocol.code.tex" 1203877327 1983 b5994ebbcee17f1ba3d29bb1bd696fcf ""
  "/usr/local/share/texmf-dist/tex/generic/pgf/systemlayer/pgfsyssoftpath.code.tex" 1393459310 7881 d459d6057e13d10ce7a227ae44b7295e ""
  "/usr/local/share/texmf-dist/tex/generic/pgf/utilities/pgffor.code.tex" 1393459310 22211 d696ef78c12269178882d218b2cf191d ""
  "/usr/local/share/texmf-dist/tex/generic/pgf/utilities/pgfkeys.code.tex" 1393459310 36194 e194ef4e0b396b531a3891feb4b1cc22 ""
  "/usr/local/share/texmf-dist/tex/generic/pgf/utilities/pgfkeysfiltered.code.tex" 1393459310 33377 af391d6ad1bfcbe2278e191f48e43ba8 ""
  "/usr/local/share/texmf-dist/tex/generic/pgf/utilities/pgfrcs.code.tex" 1393459310 2286 b5c392d27790ca52b8f8e510ef5044e0 ""
  "/usr/local/share/texmf-dist/tex/generic/pgf/utilities/pgfutil-common-lists.tex" 1393459310 6833 114eda2cf1d348e0e7e477a1a4dc1941 ""
  "/usr/local/share/texmf-dist/tex/generic/pgf/utilities/pgfutil-common.tex" 1393459310 16384 3fa06861c9a3391a75df39466f49655f ""
  "/usr/local/share/texmf-dist/tex/generic/pgf/utilities/pgfutil-latex.def" 1393459310 4500 b148f531c7670d59c695787be06a508b ""
  "/usr/local/share/texmf-dist/tex/generic/pgfplots/libs/pgflibrarypgfplots.surfshading.code.tex" 1364427911 22559 76257f115d85b663d7d24acad1c08d07 ""
  "/usr/local/share/texmf-dist/tex/generic/pgfplots/libs/pgfplotslibrary.code.tex" 1422740226 3047 aa82404aec57311271f4991c44bd71dc ""
  "/usr/local/share/texmf-dist/tex/generic/pgfplots/liststructure/pgfplotsarray.code.tex" 1312159636 21786 2b041bb5736e1a953aa34c45c10b82b4 ""
  "/usr/local/share/texmf-dist/tex/generic/pgfplots/liststructure/pgfplotsdeque.code.tex" 1262481251 4288 b8d6247899b21e3bb66bb11b24d30f2c ""
  "/usr/local/share/texmf-dist/tex/generic/pgfplots/liststructure/pgfplotsliststructure.code.tex" 1346285630 13625 52a72232796269a1b40ae1540446ef98 ""
  "/usr/local/share/texmf-dist/tex/generic/pgfplots/liststructure/pgfplotsliststructureext.code.tex" 1312159636 24390 a91050077f9411f2aef1d9170ea974df ""
  "/usr/local/share/texmf-dist/tex/generic/pgfplots/liststructure/pgfplotsmatrix.code.tex" 1364427911 18861 7dc35832c8ccea3aa73cdcd75ec0a60b ""
  "/usr/local/share/texmf-dist/tex/generic/pgfplots/numtable/pgfplotstableshared.code.tex" 1422740226 75816 7bf4a1f6c39ae5fff1c5a142a2b72b66 ""
  "/usr/local/share/texmf-dist/tex/generic/pgfplots/oldpgfcompatib/pgfplotsoldpgfsupp_loader.code.tex" 1422740226 4917 c5b4c19ef2e74c491caa881a723244ab ""
  "/usr/local/share/texmf-dist/tex/generic/pgfplots/oldpgfcompatib/pgfplotsoldpgfsupp_pgflibraryfpu.code.tex" 1422740226 71189 65d7e88c1cd3fc885385f6011c926028 ""
  "/usr/local/share/texmf-dist/tex/generic/pgfplots/oldpgfcompatib/pgfplotsoldpgfsupp_pgfmathfloat.code.tex" 1422740226 95281 deb64eaa5afb5bc8691b148da6a9089e ""
  "/usr/local/share/texmf-dist/tex/generic/pgfplots/oldpgfcompatib/pgfplotsoldpgfsupp_trig_format.code.tex" 1422740226 12158 74e2ba9574dbbb34068d9a7fe9a9327e ""
  "/usr/local/share/texmf-dist/tex/generic/pgfplots/pgfplots.code.tex" 1430688073 441094 07e1de9a0fe618aa341bd6bd806924e1 ""
  "/usr/local/share/texmf-dist/tex/generic/pgfplots/pgfplots.errorbars.code.tex" 1422740226 22206 6837e8502adbd475dd0bb448d03ddba4 ""
  "/usr/local/share/texmf-dist/tex/generic/pgfplots/pgfplots.markers.code.tex" 1422740226 12468 c7bf8a342a149a08e4d693258edc2751 ""
  "/usr/local/share/texmf-dist/tex/generic/pgfplots/pgfplots.paths.code.tex" 1325285919 2419 026baafbf72a109e199ede6fbbfd9caa ""
  "/usr/local/share/texmf-dist/tex/generic/pgfplots/pgfplots.revision.tex" 1430688073 520 6b1e8d0aa2d55eff015749a7d05ebada ""
  "/usr/local/share/texmf-dist/tex/generic/pgfplots/pgfplots.scaling.code.tex" 1422740226 123672 25c1800798def4215fe7e519f171da69 ""
  "/usr/local/share/texmf-dist/tex/generic/pgfplots/pgfplotscoordprocessing.code.tex" 1430688073 345197 4dc481c0be8f6ef6c62bd40d06f8bced ""
  "/usr/local/share/texmf-dist/tex/generic/pgfplots/pgfplotscore.code.tex" 1430688073 17766 b94add329456f1781dfdaa983db0d684 ""
  "/usr/local/share/texmf-dist/tex/generic/pgfplots/pgfplotsmeshplothandler.code.tex" 1422740226 113706 7a67968ce5b1a2aa2395ca105466d6d4 ""
  "/usr/local/share/texmf-dist/tex/generic/pgfplots/pgfplotsplothandlers.code.tex" 1422740226 111712 97ccd8dbc5faf0775602cbe62fb0c2e1 ""
  "/usr/local/share/texmf-dist/tex/generic/pgfplots/pgfplotsstackedplots.code.tex" 1422740226 22370 2db69038409dfe005e67410d74dee301 ""
  "/usr/local/share/texmf-dist/tex/generic/pgfplots/pgfplotsticks.code.tex" 1407365279 82229 804faa87f2ff37428c8d2cb653eb4ca4 ""
  "/usr/local/share/texmf-dist/tex/generic/pgfplots/sys/pgflibrarypgfplots.surfshading.pgfsys-pdftex.def" 1364427911 5877 aa302309c1cdddc36dd3a00cbd806cfe ""
  "/usr/local/share/texmf-dist/tex/generic/pgfplots/sys/pgfplotssysgeneric.code.tex" 1351287374 3095 c82d281b748902a65be2ccca97360b11 ""
  "/usr/local/share/texmf-dist/tex/generic/pgfplots/util/pgfplotsbinary.code.tex" 1430688073 23050 a369aa910ef860a3621fe0459faa335c ""
  "/usr/local/share/texmf-dist/tex/generic/pgfplots/util/pgfplotsbinary.data.code.tex" 1346285630 26859 7a4ee9d206fb0a0daa0d3108445afb57 ""
  "/usr/local/share/texmf-dist/tex/generic/pgfplots/util/pgfplotscolor.code.tex" 1380839021 23958 1b96260863091af1669c3a38b1c4c9af ""
  "/usr/local/share/texmf-dist/tex/generic/pgfplots/util/pgfplotscolormap.code.tex" 1430688073 29698 698fa0611a5a3839fc76055b6dbf3367 ""
  "/usr/local/share/texmf-dist/tex/generic/pgfplots/util/pgfplotsutil.code.tex" 1430688073 66400 9ac4062b8b51d0c83072ab6c88502478 ""
  "/usr/local/share/texmf-dist/tex/generic/pgfplots/util/pgfplotsutil.verb.code.tex" 1312159636 3286 c17079ba50483e1ac1721268ea016041 ""
  "/usr/local/share/texmf-dist/tex/generic/systeme/systeme.sty" 1298935803 157 b364db4d228395bc0dbb03020ab769cb ""
  "/usr/local/share/texmf-dist/tex/generic/systeme/systeme.tex" 1387841341 27144 46b244b1d2ef5973017957a6503f82c8 ""
  "/usr/local/share/texmf-dist/tex/generic/xkeyval/keyval.tex" 1403829539 2725 fc34ef3ccb37ba15a640e8fca6190bca ""
  "/usr/local/share/texmf-dist/tex/generic/xkeyval/xkeyval.tex" 1417732693 19231 26434a5656c684f5ffb1f26f98006baa ""
  "/usr/local/share/texmf-dist/tex/generic/xkeyval/xkvutils.tex" 1403829539 7677 6f5ce7c1124cad7ec57d05b2562bd8fe ""
  "/usr/local/share/texmf-dist/tex/generic/xstring/xstring.sty" 1269905706 144 0ca8d67b000b795a4d9ec000e0fd09c7 ""
  "/usr/local/share/texmf-dist/tex/generic/xstring/xstring.tex" 1381789620 54373 fd4487ae3e45d4074bc89aea1d2b6807 ""
  "/usr/local/share/texmf-dist/tex/latex/amsfonts/amsfonts.sty" 1359763108 5949 3f3fd50a8cc94c3d4cbf4fc66cd3df1c ""
  "/usr/local/share/texmf-dist/tex/latex/amsfonts/amssymb.sty" 1359763108 13829 94730e64147574077f8ecfea9bb69af4 ""
  "/usr/local/share/texmf-dist/tex/latex/amsfonts/umsa.fd" 1359763108 961 6518c6525a34feb5e8250ffa91731cff ""
  "/usr/local/share/texmf-dist/tex/latex/amsfonts/umsb.fd" 1359763108 961 d02606146ba5601b5645f987c92e6193 ""
  "/usr/local/share/texmf-dist/tex/latex/amsmath/amsbsy.sty" 1362954379 2412 2d98314dc5be38f455f8890deeb2d091 ""
  "/usr/local/share/texmf-dist/tex/latex/amsmath/amsgen.sty" 1362954379 4357 ad30ad08920902fc9b38caf35a3b0496 ""
  "/usr/local/share/texmf-dist/tex/latex/amsmath/amsmath.sty" 1362954379 79178 b2e326c351e876df0e5e23df2e02441b ""
  "/usr/local/share/texmf-dist/tex/latex/amsmath/amsopn.sty" 1362954379 4082 502152465aedb8f6a3c4b0b7c0fa8ae5 ""
  "/usr/local/share/texmf-dist/tex/latex/amsmath/amstext.sty" 1362954379 2637 846ebe982d3549c7ede7ce135456f54a ""
  "/usr/local/share/texmf-dist/tex/latex/base/bk11.clo" 1609032363 9034 6630ea91b2c8bbc8eb3176bf252ef028 ""
  "/usr/local/share/texmf-dist/tex/latex/base/book.cls" 1609032363 23832 51eb6e8dd5e41b85e5c715f373c205f3 ""
  "/usr/local/share/texmf-dist/tex/latex/base/fontenc.sty" 1609032363 4572 f29f75cfae3acaf4667f1979db655af9 ""
  "/usr/local/share/texmf-dist/tex/latex/base/ifthen.sty" 1609032363 5159 bb529586d444e85eb00179221b678119 ""
  "/usr/local/share/texmf-dist/tex/latex/base/inputenc.sty" 1609032363 5619 3f48adceb9004b3fefe24c2d2df7d98e ""
  "/usr/local/share/texmf-dist/tex/latex/base/latin1.def" 1609032363 6565 dc1d30b7ecd4efb7b7db2e13c3637c3f ""
  "/usr/local/share/texmf-dist/tex/latex/base/makeidx.sty" 1609032363 1940 d6de0410d9ab8e197c80422e5314e9da ""
  "/usr/local/share/texmf-dist/tex/latex/base/t1cmss.fd" 1609032363 2408 fba750226866a29223a4e156be1fdc1b ""
  "/usr/local/share/texmf-dist/tex/latex/base/t1enc.def" 1609032363 9327 bf6addf718ff386725227c5b52941e7e ""
  "/usr/local/share/texmf-dist/tex/latex/base/textcomp.sty" 1609032363 16155 258f35a63ef332879c6629fd0fc875da ""
  "/usr/local/share/texmf-dist/tex/latex/base/ts1cmr.fd" 1609032363 2217 88eb40cf4b1efa71ba8daf8030a0113f ""
  "/usr/local/share/texmf-dist/tex/latex/base/ts1cmss.fd" 1609032363 2161 612cd31a6c882e8a44b2091a03aeb7d5 ""
  "/usr/local/share/texmf-dist/tex/latex/base/ts1enc.def" 1609032363 7767 7f8f29a2f77fdabc077bc233a27c01d3 ""
  "/usr/local/share/texmf-dist/tex/latex/beamer/translator/dicts/translator-basic-dictionary/translator-basic-dictionary-English.dict" 1279125320 3435 0a4d096dde3f8fe682c2aedd33b8137d ""
  "/usr/local/share/texmf-dist/tex/latex/beamer/translator/translator-language-mappings.tex" 1338588496 5067 f1bb98f63e0761f897f48a159127fbb6 ""
  "/usr/local/share/texmf-dist/tex/latex/beamer/translator/translator.sty" 1356734651 3824 9ccc2efa439cf13750315a0f20d4f691 ""
  "/usr/local/share/texmf-dist/tex/latex/blindtext/blindtext.sty" 1325892463 47295 de48b7f8ebf4b54709a2f6b2c7106dd5 ""
  "/usr/local/share/texmf-dist/tex/latex/changepage/changepage.sty" 1256071977 4523 a9044e2dc40e764dac60d2acda7ae919 ""
  "/usr/local/share/texmf-dist/tex/latex/esint/esint.sty" 1137110103 2738 d009930b67bcc6c8477ed9dd979e1bec ""
  "/usr/local/share/texmf-dist/tex/latex/esint/uesint.fd" 1137110103 777 8a4024cddce58525258bc7d69de6dc0d ""
  "/usr/local/share/texmf-dist/tex/latex/etoolbox/etoolbox.sty" 1430782444 41378 634c60649ed7bd8618c1848a121dcee7 ""
  "/usr/local/share/texmf-dist/tex/latex/fancyhdr/fancyhdr.sty" 1160175134 20521 e5d13d98d57bd53d4fed3aa61bd29c86 ""
  "/usr/local/share/texmf-dist/tex/latex/float/float.sty" 1137110151 6749 16d2656a1984957e674b149555f1ea1d ""
  "/usr/local/share/texmf-dist/tex/latex/fourier/fmxfutm.fd" 1137110168 234 391aead033d3fe052ccf3274bb7741ee ""
  "/usr/local/share/texmf-dist/tex/latex/fourier/fourier-orns.sty" 1137110168 1677 589eddc75f98c1b83abe9d1f1007ef8c ""
  "/usr/local/share/texmf-dist/tex/latex/fourier/fourier.sty" 1137110168 14587 5ab3db6bde809931d7e61b01babd4b61 ""
  "/usr/local/share/texmf-dist/tex/latex/fouriernc/fmlfncm.fd" 1177591358 642 1244cf5bf948d4963271409ea88f8543 ""
  "/usr/local/share/texmf-dist/tex/latex/fouriernc/fmlfncmi.fd" 1177591358 658 38105857d89472be8eed26cc32e6f688 ""
  "/usr/local/share/texmf-dist/tex/latex/fouriernc/fmsfncm.fd" 1177591358 346 114ff322312f6e62ea484cc7c8a1085d ""
  "/usr/local/share/texmf-dist/tex/latex/fouriernc/fouriernc.sty" 1177591358 1311 84623040e092276cb869b40b1179dc87 ""
  "/usr/local/share/texmf-dist/tex/latex/fouriernc/t1fnc.fd" 1177591358 853 bf1a149b86e36dfa4f5900e28e7a599d ""
  "/usr/local/share/texmf-dist/tex/latex/fouriernc/ts1fnc.fd" 1177591358 673 ef297c63bd6faa9147e47afb97689b1c ""
  "/usr/local/share/texmf-dist/tex/latex/geometry/geometry.sty" 1284422013 40502 e003406220954b0716679d7928aedd8a ""
  "/usr/local/share/texmf-dist/tex/latex/graphics/graphics.sty" 1428932888 14285 20d80486c4ae98139889d8789596c967 ""
  "/usr/local/share/texmf-dist/tex/latex/graphics/graphicx.sty" 1428932888 8125 557ab9f1bfa80d369fb45a914aa8a3b4 ""
  "/usr/local/share/texmf-dist/tex/latex/graphics/trig.sty" 1428932888 3439 44bd4a1da7f27787173f2e99116b0a7f ""
  "/usr/local/share/texmf-dist/tex/latex/hyperref/hpdftex.def" 1352416072 51837 247bd8424b3835ef78c236dc1e0b4aef ""
  "/usr/local/share/texmf-dist/tex/latex/hyperref/hyperref.sty" 1352416072 231792 5fc9dc7dd667e773a766ecc63bba7f4b ""
  "/usr/local/share/texmf-dist/tex/latex/hyperref/nameref.sty" 1351899753 12847 25b617d63258c4f72870c883493a3cf8 ""
  "/usr/local/share/texmf-dist/tex/latex/hyperref/pd1enc.def" 1352416072 14005 155ac8fad2e5dd7c2cdd130fabd96633 ""
  "/usr/local/share/texmf-dist/tex/latex/hyperref/puenc.def" 1352416072 122263 ec12fdd2044f1507e5ae92ee7a5bbfae ""
  "/usr/local/share/texmf-dist/tex/latex/l3kernel/expl3-code.tex" 1425333639 620503 0a42d66dc46ae1556f8411b690472b29 ""
  "/usr/local/share/texmf-dist/tex/latex/l3kernel/expl3.sty" 1425333639 9939 d111746ad1c76689755456576a3e5b3a ""
  "/usr/local/share/texmf-dist/tex/latex/l3kernel/l3pdfmode.def" 1417044313 5044 893dfca2aa5b7b2748a9a0632e0b33d7 ""
  "/usr/local/share/texmf-dist/tex/latex/l3kernel/l3unicode-data.def" 1425333639 36377 33858a9b2d242d8c95adb07885e1ee99 ""
  "/usr/local/share/texmf-dist/tex/latex/l3packages/l3keys2e/l3keys2e.sty" 1417044313 5415 f2f38bb22547abf809d715d94df92bcc ""
  "/usr/local/share/texmf-dist/tex/latex/l3packages/xparse/xparse.sty" 1417044313 56537 02dfce72dd53c1e4f143ba9ddcea0d19 ""
  "/usr/local/share/texmf-dist/tex/latex/latexconfig/color.cfg" 1254097189 802 7b8c8d72c24d795ed7720e4dfd29bff3 ""
  "/usr/local/share/texmf-dist/tex/latex/latexconfig/epstopdf-sys.cfg" 1279039959 678 4792914a8f45be57bb98413425e4c7af ""
  "/usr/local/share/texmf-dist/tex/latex/latexconfig/graphics.cfg" 1278958963 3563 d35e897cae3b8c6848f6677b73370b54 ""
  "/usr/local/share/texmf-dist/tex/latex/latexconfig/hyperref.cfg" 1254097189 235 6031e5765137be07eed51a510b2b8fb7 ""
  "/usr/local/share/texmf-dist/tex/latex/lipsum/lipsum.sty" 1406996843 103491 f3a8d28ba533bcdb24167b15de14ff22 ""
  "/usr/local/share/texmf-dist/tex/latex/mathtools/mathtools.sty" 1431377668 51635 f312f437548973968539dd17991cc321 ""
  "/usr/local/share/texmf-dist/tex/latex/mathtools/mhsetup.sty" 1407448394 5175 696879833890ce832e12746d98d0e932 ""
  "/usr/local/share/texmf-dist/tex/latex/ms/everyshi.sty" 1177890616 3878 6aa7c08ff2621006e0603349e40a30a8 ""
  "/usr/local/share/texmf-dist/tex/latex/natbib/natbib.sty" 1291685959 45456 1c8843383c0bd05870c45fa0ebea6cc2 ""
  "/usr/local/share/texmf-dist/tex/latex/ntheorem/ntheorem.sty" 1346969955 43120 799f06af91d8fb275749981ca21a5146 ""
  "/usr/local/share/texmf-dist/tex/latex/oberdiek/auxhook.sty" 1303254447 3834 707ef09f31d7d2ea47ba89974755dfe0 ""
  "/usr/local/share/texmf-dist/tex/latex/oberdiek/epstopdf-base.sty" 1303254447 12029 04d7fdf76e0464c23b5aa3a727952d7c ""
  "/usr/local/share/texmf-dist/tex/latex/oberdiek/grfext.sty" 1335995445 7075 bd0c34fbf1ae8fd1debd2a554e41b2d5 ""
  "/usr/local/share/texmf-dist/tex/latex/oberdiek/kvoptions.sty" 1335995445 22417 c74ff4af6a1aa2b65d1924020edbbe11 ""
  "/usr/local/share/texmf-dist/tex/latex/oberdiek/rerunfilecheck.sty" 1303254447 9581 1158efc648bc09d5064db5703c882159 ""
  "/usr/local/share/texmf-dist/tex/latex/pdftex-def/pdftex.def" 1306616590 55368 3c8a0d99822330f2dfabc0dfb09ce897 ""
  "/usr/local/share/texmf-dist/tex/latex/pgf/basiclayer/pgf.sty" 1393459310 1190 4e20f1d26da9f86ba6a50d7ad16c48d2 ""
  "/usr/local/share/texmf-dist/tex/latex/pgf/basiclayer/pgfcore.sty" 1288312291 410 5bf12ea7330e5f12c445332a4fe9a263 ""
  "/usr/local/share/texmf-dist/tex/latex/pgf/compatibility/pgfcomp-version-0-65.sty" 1203877327 21115 facf03b7dbe5ea2f5f1dce1ac84b5d05 ""
  "/usr/local/share/texmf-dist/tex/latex/pgf/compatibility/pgfcomp-version-1-18.sty" 1203727794 1091 d9163d29def82ee90370c8a63667742c ""
  "/usr/local/share/texmf-dist/tex/latex/pgf/frontendlayer/tikz.sty" 1203877327 339 592cf35cba3d400082b8a9a5d0199d70 ""
  "/usr/local/share/texmf-dist/tex/latex/pgf/math/pgfmath.sty" 1393459310 306 0796eafca5e159e6ec2167a6d22d81b1 ""
  "/usr/local/share/texmf-dist/tex/latex/pgf/systemlayer/pgfsys.sty" 1393459310 443 0b2e781830192df35c0fd357cf13e26e ""
  "/usr/local/share/texmf-dist/tex/latex/pgf/utilities/pgffor.sty" 1393459310 348 8927fde343487e003b01a4c2ca34073b ""
  "/usr/local/share/texmf-dist/tex/latex/pgf/utilities/pgfkeys.sty" 1203727794 274 4cad6e665cc93ac2ac979039a94fa1e1 ""
  "/usr/local/share/texmf-dist/tex/latex/pgf/utilities/pgfrcs.sty" 1203877327 325 2bcd023400636339210573e2b3ee298b ""
  "/usr/local/share/texmf-dist/tex/latex/pgfplots/pgfplots.sty" 1422740226 3905 950b56ce7b0663634a7d0012af60243f ""
  "/usr/local/share/texmf-dist/tex/latex/sectsty/sectsty.sty" 1137110779 22423 d476012cd03f82f9475ad54ba6cd3267 ""
  "/usr/local/share/texmf-dist/tex/latex/siunitx/siunitx-abbreviations.cfg" 1421974509 4669 2278a7c9399d55c01bd3f292fa6fa9d4 ""
  "/usr/local/share/texmf-dist/tex/latex/siunitx/siunitx.sty" 1421974509 275379 b3cce7db489e785106a8c6caeea763f1 ""
  "/usr/local/share/texmf-dist/tex/latex/titlesec/titlesec.sty" 1324083561 37083 54a2e11f0f208916a9976d9e4837d144 ""
  "/usr/local/share/texmf-dist/tex/latex/todonotes/todonotes.sty" 1414111168 17377 bc5c9601d3769048725a727e7d6d7195 ""
  "/usr/local/share/texmf-dist/tex/latex/tools/array.sty" 1428932888 13285 001a28447062ce32b9b4a62965626fc4 ""
  "/usr/local/share/texmf-dist/tex/latex/tools/calc.sty" 1428932888 10214 78c09985255ed93018b1db2c4e2f6deb ""
  "/usr/local/share/texmf-dist/tex/latex/tools/enumerate.sty" 1428932888 3467 e23880ed1af32024be116b861a72d6e1 ""
  "/usr/local/share/texmf-dist/tex/latex/tools/xspace.sty" 1428932888 4544 af3b6f93fee0a11f1dd120a6ec5d36c9 ""
  "/usr/local/share/texmf-dist/tex/latex/url/url.sty" 1388531844 12796 8edb7d69a20b857904dd0ea757c14ec9 ""
  "/usr/local/share/texmf-dist/tex/latex/was/gensymb.sty" 1137111079 4612 29d19942d7123701aa6a3876b9ba11b1 ""
  "/usr/local/share/texmf-dist/tex/latex/xcolor/xcolor.sty" 1169481954 55224 a43bab84e0ac5e6efcaf9a98bde73a94 ""
  "/usr/local/share/texmf-dist/tex/latex/xkeyval/xkeyval.sty" 1417732693 4962 9c1069474ff71dbc47d5006555e352d3 ""
  "/usr/local/share/texmf-dist/web2c/texmf.cnf" 1600305089 31993 99636c7cdb6bfcdeed281f4a9987770c ""
  "/usr/local/share/texmf-var/fonts/map/pdftex/updmap/pdftex.map" 1609178127 21257 e3d1cc4cd647ae7dd1a6801005b8ec8f ""
  "/usr/local/share/texmf-var/web2c/pdftex/pdflatex.fmt" 1609033439 3846758 3df7e6e0b0e07ccff348185a910e5669 ""
  "/var/db/tlpkg/texmf.cnf" 1601688615 31993 99636c7cdb6bfcdeed281f4a9987770c ""
  "content/statistiek.tex" 1589122308 81587 c1680fce00d1fd0ec90b65c31e6cd26e ""
  "content/title1.tex" 1588635342 3371 581ed87a14efbdee0776ec19ba7ad823 ""
  "content/title2.tex" 1588635342 281 ac03749ad9e1f56bd4b28fbb1564eef5 ""
  "main.aux" 1609521892 24930 4283df1ba52b598eba9767faf737d43c ""
  "main.bbl" 1609521914 546 ea4e7bc5b6420d99f741767d7fcbe49d "bibtex main"
  "main.ind" 1609521914 0 d41d8cd98f00b204e9800998ecf8427e "makeindex main.idx"
  "main.lof" 1609521892 60 35b3ba4c48b0bf046560cd0a3baa68f3 ""
  "main.lot" 1609521892 60 35b3ba4c48b0bf046560cd0a3baa68f3 ""
  "main.out" 1609521892 6268 42e8e06c1fce80253ca8e6cb476a3180 ""
  "main.tdo" 1609521891 0 d41d8cd98f00b204e9800998ecf8427e ""
  "main.tex" 1609521460 1795 fd21b3ced3fdaf83bf291288c47ebbec ""
  "main.toc" 1609521892 7129 7571f8c96ef095132e0b3868c6905b56 ""
  "settings/macros.tex" 1605020674 1209 1074eb044430a077a700b99314001c05 ""
  "settings/packages.tex" 1588678644 1335 0b811f04aeb2c783bd2471e3719e6d63 ""
  "settings/page.tex" 1588592990 509 1510b68130455277ddfb514ff53a2f65 ""
  "settings/theorems.tex" 1589119442 1952 d3b5e6330861aa034b71bbf1c7b451ee ""
  (generated)
  "main.pdf"
  "main.aux"
  "main.log"
  "main.toc"
  "main.thm"
  "main.lot"
  "main.out"
  "main.tdo"
  "main.lof"
  "main.idx"
