\contentsline {chapter}{\numberline {1}Statistiek}{1}{chapter.1}%
\contentsline {section}{\numberline {1.1}Experimenten}{2}{section.1.1}%
\contentsline {section}{\numberline {1.2}Kansfuncties}{3}{section.1.2}%
\contentsline {section}{\numberline {1.3}Continue toevalsgrootheden}{6}{section.1.3}%
\contentsline {section}{\numberline {1.4}Discrete van toevalsgrootheden}{7}{section.1.4}%
\contentsline {section}{\numberline {1.5}Simultane kansverdeling en stochastische onafhankelijkhied}{8}{section.1.5}%
\contentsline {section}{\numberline {1.6}Momenten van toevalsgrootheden}{10}{section.1.6}%
\contentsline {section}{\numberline {1.7}Combinatieleer}{16}{section.1.7}%
\contentsline {section}{\numberline {1.8}Theoretische discrete verdelingen}{18}{section.1.8}%
\contentsline {section}{\numberline {1.9}Theoretische continue verdelingen}{20}{section.1.9}%
\contentsline {section}{\numberline {1.10}De normale verdeling}{22}{section.1.10}%
\contentsline {section}{\numberline {1.11}Chebycheff ongelijkheid}{25}{section.1.11}%
\contentsline {section}{\numberline {1.12}Centrale limietstelling}{25}{section.1.12}%
\contentsline {section}{\numberline {1.13}Benadering van verdelingen}{25}{section.1.13}%
\contentsline {section}{\numberline {1.14}Genereren van random getallen}{26}{section.1.14}%
\contentsline {section}{\numberline {1.15}Schatten van parameters}{27}{section.1.15}%
\contentsline {section}{\numberline {1.16}Jackknife methode voor het zuiverder schatten van een parameter}{30}{section.1.16}%
\contentsline {section}{\numberline {1.17}Distributies voor betrouwbaarheidsintervallen}{30}{section.1.17}%
\contentsline {section}{\numberline {1.18}Betrouwbaarheidsintervallen voor $\mu $}{31}{section.1.18}%
\contentsline {subsection}{\numberline {1.18.1} $\mu $-interval bij een steekproef $N(\mu ;\sigma ^2)$ met gekende $\sigma $ }{32}{subsection.1.18.1}%
\contentsline {subsection}{\numberline {1.18.2}$\mu $-interval uit grote steekproeven}{33}{subsection.1.18.2}%
\contentsline {subsection}{\numberline {1.18.3}$\mu $-interval bij de Hom[a-1,a+1]-verdeling}{33}{subsection.1.18.3}%
\contentsline {subsection}{\numberline {1.18.4}$\mu $-interval bij de poisson verdeling}{34}{subsection.1.18.4}%
\contentsline {subsection}{\numberline {1.18.5}$\mu $-interval bij de binomiale verdeling}{34}{subsection.1.18.5}%
\contentsline {subsection}{\numberline {1.18.6} $\mu $-interval bij een steekproef $N(\mu ;\sigma ^2)$ met ongekende $\sigma $ }{35}{subsection.1.18.6}%
\contentsline {section}{\numberline {1.19}Betrouwbaarheidsintervallen voor $\sigma $}{36}{section.1.19}%
\contentsline {subsection}{\numberline {1.19.1} $\sigma $-interval uit een $N(\mu ,\sigma ^2)$-verdelingen met verschillende gekende $\mu $}{36}{subsection.1.19.1}%
\contentsline {subsection}{\numberline {1.19.2} $\sigma $-interval uit een $N(\mu ,\sigma ^2)$ met \~A\IeC {\copyright }\~A\IeC {\copyright }n ongekende $\mu $ }{36}{subsection.1.19.2}%
\contentsline {section}{\numberline {1.20}Andere betrouwbaarheidsintervallen}{36}{section.1.20}%
\contentsline {subsection}{\numberline {1.20.1}Betrouwbaarheidsintervallen voor de mediaan}{37}{subsection.1.20.1}%
\contentsline {section}{\numberline {1.21}Schatten van variantie met bootstrap methode}{37}{section.1.21}%
\contentsline {section}{\numberline {1.22}Toetsen van hypothesen}{38}{section.1.22}%
\contentsline {subsection}{\numberline {1.22.1}Algemene procedure}{38}{subsection.1.22.1}%
\contentsline {subsection}{\numberline {1.22.2}Onderscheidingsvermogen}{38}{subsection.1.22.2}%
\contentsline {subsection}{\numberline {1.22.3}Normaal toets voor het gemiddelde met $H_1:\mu \neq \mu _0$}{38}{subsection.1.22.3}%
\contentsline {subsection}{\numberline {1.22.4}Normaal toets voor het gemiddelde kleiner dan een waarde, met $H_1:\mu >\mu _0$}{39}{subsection.1.22.4}%
\contentsline {subsection}{\numberline {1.22.5}De Studenttoets voor het gemiddelde}{39}{subsection.1.22.5}%
\contentsline {subsection}{\numberline {1.22.6}De tekentoets voor de mediaan}{40}{subsection.1.22.6}%
\contentsline {subsection}{\numberline {1.22.7}Toets voor variantie van een normale verdeling bij onbekend gemiddelde}{40}{subsection.1.22.7}%
\contentsline {subsection}{\numberline {1.22.8}Toets op uitschieters naar beneden}{41}{subsection.1.22.8}%
\contentsline {subsection}{\numberline {1.22.9}Toets op uitschieters naar boven}{41}{subsection.1.22.9}%
\contentsline {subsection}{\numberline {1.22.10}Uitschieters bij normaal verdeelde grootheden}{42}{subsection.1.22.10}%
\contentsline {section}{\numberline {1.23}Distributies voor toets 2 verdelingen}{42}{section.1.23}%
\contentsline {subsection}{\numberline {1.23.1}F-verdeling}{42}{subsection.1.23.1}%
\contentsline {section}{\numberline {1.24}Toets 2 verdelingen}{42}{section.1.24}%
\contentsline {subsection}{\numberline {1.24.1}Twee steekproeven normale toets voor gelijk gemiddelde}{42}{subsection.1.24.1}%
\contentsline {subsection}{\numberline {1.24.2}Twee steekproeven Studenttoets}{43}{subsection.1.24.2}%
\contentsline {subsection}{\numberline {1.24.3}Twee grote steekproeven toets voor gelijk gemiddelde}{44}{subsection.1.24.3}%
\contentsline {subsection}{\numberline {1.24.4}Twee steekproeven F-toets voor verhouding van standaardafwijking}{44}{subsection.1.24.4}%
\contentsline {subsection}{\numberline {1.24.5}Wilcowxon-Mann-Whitneytoets voor gelijkheid van verdeling}{45}{subsection.1.24.5}%
\contentsline {section}{\numberline {1.25}Andere toetsen}{46}{section.1.25}%
\contentsline {subsection}{\numberline {1.25.1}$\chi ^2$-toets voor "goodness of fit"}{46}{subsection.1.25.1}%
\contentsline {subsection}{\numberline {1.25.2}De Kolmogorov-Smirnovtoets}{46}{subsection.1.25.2}%
\contentsline {section}{\numberline {1.26}Methode van de kleinste kwadraten}{47}{section.1.26}%
\contentsline {subsection}{\numberline {1.26.1}Algemeen model}{47}{subsection.1.26.1}%
\contentsline {subsection}{\numberline {1.26.2}Maximum likelihood}{47}{subsection.1.26.2}%
\contentsline {subsection}{\numberline {1.26.3}Kleinste kwadratenmethode voor lineaire functies met gelijke $\sigma $}{48}{subsection.1.26.3}%
\contentsline {subsection}{\numberline {1.26.4}Best passende rechte}{49}{subsection.1.26.4}%
\contentsline {subsection}{\numberline {1.26.5}Niet lineaire modellen}{49}{subsection.1.26.5}%
\contentsline {section}{\numberline {1.27}Robuste schatters}{49}{section.1.27}%
\contentsline {subsection}{\numberline {1.27.1}Schatters voor plaats van de verdeling}{49}{subsection.1.27.1}%
\contentsline {subsubsection}{Trimmed means}{49}{section*.3}%
\contentsline {subsubsection}{Kortste halve interval}{49}{section*.4}%
\contentsline {subsection}{\numberline {1.27.2}Schatter voor breedte van een verdeling}{50}{subsection.1.27.2}%
\contentsline {subsubsection}{Spreiding op basis van kwartielafstand}{50}{section*.5}%
\contentsline {subsubsection}{Spreding op basis van kortste interval}{50}{section*.6}%
\contentsline {subsubsection}{Median absolute deviation}{50}{section*.7}%
\contentsline {section}{\numberline {1.28}Introduction}{50}{section.1.28}%
\contentsline {subsection}{\numberline {1.28.1}Orthonormal basis}{50}{subsection.1.28.1}%
\contentsline {subsection}{\numberline {1.28.2}Angle}{50}{subsection.1.28.2}%
\contentsline {subsection}{\numberline {1.28.3}Cosinus and sinus of an angle}{50}{subsection.1.28.3}%
\contentsline {chapter}{\numberline {2}Linear algebra}{52}{chapter.2}%
\contentsline {section}{\numberline {2.1}Assumptions}{53}{section.2.1}%
\contentsline {section}{\numberline {2.2}Vectors}{53}{section.2.2}%
\contentsline {subsection}{\numberline {2.2.1}Vector Definitions}{53}{subsection.2.2.1}%
\contentsline {subsection}{\numberline {2.2.2}Tuples}{53}{subsection.2.2.2}%
\contentsline {subsection}{\numberline {2.2.3}Scalar Fields}{53}{subsection.2.2.3}%
\contentsline {subsection}{\numberline {2.2.4}Vectors}{54}{subsection.2.2.4}%
\contentsline {subsection}{\numberline {2.2.5}Vector Arithmetic}{54}{subsection.2.2.5}%
\contentsline {subsection}{\numberline {2.2.6}Coordinates}{54}{subsection.2.2.6}%
\contentsline {subsection}{\numberline {2.2.7}Geometric interpretation}{54}{subsection.2.2.7}%
\contentsline {subsection}{\numberline {2.2.8}Dot product,modulus}{54}{subsection.2.2.8}%
\contentsline {subsection}{\numberline {2.2.9}Geometric interpretation}{54}{subsection.2.2.9}%
\contentsline {subsection}{\numberline {2.2.10}Distance between two points}{55}{subsection.2.2.10}%
\contentsline {section}{\numberline {2.3}Matrix of a system of linear equations}{55}{section.2.3}%
\contentsline {subsection}{\numberline {2.3.1}Systems of linear equations}{55}{subsection.2.3.1}%
\contentsline {subsection}{\numberline {2.3.2}Coefficient matrix / Augmented matrix}{55}{subsection.2.3.2}%
\contentsline {subsection}{\numberline {2.3.3}Reduction of the coefficient matrix}{56}{subsection.2.3.3}%
\contentsline {subsection}{\numberline {2.3.4}Definitions}{56}{subsection.2.3.4}%
\contentsline {subsection}{\numberline {2.3.5}Gaussian elimination}{57}{subsection.2.3.5}%
\contentsline {subsection}{\numberline {2.3.6}Reduced row echolon form}{57}{subsection.2.3.6}%
\contentsline {subsection}{\numberline {2.3.7}Linear equations as a matrix vector product}{58}{subsection.2.3.7}%
\contentsline {subsection}{\numberline {2.3.8}Homogeneous linear equations}{59}{subsection.2.3.8}%
\contentsline {section}{\numberline {2.4}Linear transformations}{59}{section.2.4}%
\contentsline {subsection}{\numberline {2.4.1}Geometric interpretation}{59}{subsection.2.4.1}%
\contentsline {subsection}{\numberline {2.4.2}Linear transformations}{59}{subsection.2.4.2}%
\contentsline {subsection}{\numberline {2.4.3}Col(T) or range of a linear transformation}{61}{subsection.2.4.3}%
\contentsline {subsection}{\numberline {2.4.4}Ker(T) or nullspace of a linear transformation}{62}{subsection.2.4.4}%
\contentsline {section}{\numberline {2.5}Duality , dotproduct as transformation}{62}{section.2.5}%
\contentsline {section}{\numberline {2.6}Matrices I}{62}{section.2.6}%
\contentsline {subsection}{\numberline {2.6.1}Matrix addition}{62}{subsection.2.6.1}%
\contentsline {subsection}{\numberline {2.6.2}Matrix multiplication}{63}{subsection.2.6.2}%
\contentsline {subsection}{\numberline {2.6.3}Elementary row operating as matrix multiplication}{64}{subsection.2.6.3}%
\contentsline {subsection}{\numberline {2.6.4}Matrix inverse}{64}{subsection.2.6.4}%
\contentsline {subsection}{\numberline {2.6.5}Procedure to find inverse using row operations}{65}{subsection.2.6.5}%
\contentsline {subsection}{\numberline {2.6.6}Non-intertable matrices}{66}{subsection.2.6.6}%
\contentsline {subsection}{\numberline {2.6.7}Geometric meaning of invertable matrices}{66}{subsection.2.6.7}%
\contentsline {section}{\numberline {2.7}Abstract vector spaces}{66}{section.2.7}%
\contentsline {section}{\numberline {2.8}Matrices II}{69}{section.2.8}%
\contentsline {subsection}{\numberline {2.8.1}Null-/column/row-space of a matrix of a transformation}{69}{subsection.2.8.1}%
\contentsline {subsection}{\numberline {2.8.2}Ker(A)}{71}{subsection.2.8.2}%
\contentsline {subsection}{\numberline {2.8.3}Column space}{71}{subsection.2.8.3}%
\contentsline {subsection}{\numberline {2.8.4}Relations}{72}{subsection.2.8.4}%
\contentsline {section}{\numberline {2.9}Transformation of the basis}{72}{section.2.9}%
\contentsline {section}{\numberline {2.10}Determinant of a matrix}{73}{section.2.10}%
\contentsline {subsection}{\numberline {2.10.1}Determinant}{73}{subsection.2.10.1}%
\contentsline {subsection}{\numberline {2.10.2}Adjoint method for matrix inverse}{73}{subsection.2.10.2}%
\contentsline {subsection}{\numberline {2.10.3}Geometrical interpretation of determinant}{74}{subsection.2.10.3}%
\contentsline {subsection}{\numberline {2.10.4}Determinant of a 3X3 matrix,cross product}{74}{subsection.2.10.4}%
\contentsline {subsection}{\numberline {2.10.5}Geometrical interpretation of Cross product}{74}{subsection.2.10.5}%
\contentsline {subsection}{\numberline {2.10.6}Determinant of a product of matrices}{74}{subsection.2.10.6}%
\contentsline {section}{\numberline {2.11}Eigenvectors}{74}{section.2.11}%
\contentsline {subsection}{\numberline {2.11.1}Eigenvalue}{74}{subsection.2.11.1}%
\contentsline {subsection}{\numberline {2.11.2}Charateristic equation}{75}{subsection.2.11.2}%
\contentsline {subsection}{\numberline {2.11.3}Algebraic multiplicity}{76}{subsection.2.11.3}%
\contentsline {subsection}{\numberline {2.11.4}Diagonal matrices}{76}{subsection.2.11.4}%
\contentsline {subsection}{\numberline {2.11.5}Finding eigenvectors using matrix multiplication}{76}{subsection.2.11.5}%
\contentsline {subsection}{\numberline {2.11.6}Eigenspaces}{76}{subsection.2.11.6}%
\contentsline {subsection}{\numberline {2.11.7}Orthogonal,orthonormal bases of a vectorspace}{77}{subsection.2.11.7}%
\contentsline {subsection}{\numberline {2.11.8}Eigen decomposition/diagonalisation}{77}{subsection.2.11.8}%
\contentsline {subsection}{\numberline {2.11.9}Eigenvectors numerically}{79}{subsection.2.11.9}%
\contentsline {section}{\numberline {2.12}Inner product spaces}{80}{section.2.12}%
\contentsline {subsection}{\numberline {2.12.1}Intro}{80}{subsection.2.12.1}%
\contentsline {subsection}{\numberline {2.12.2}Orthogonal decomposition}{81}{subsection.2.12.2}%
\contentsline {subsection}{\numberline {2.12.3}Orthogonal projection as minimization}{83}{subsection.2.12.3}%
\contentsline {subsection}{\numberline {2.12.4}Gram-Schmidt orthogonalisation}{84}{subsection.2.12.4}%
\contentsline {subsection}{\numberline {2.12.5}Least squares approximation}{84}{subsection.2.12.5}%
\contentsline {section}{\numberline {2.13}Examples of inner product spaces}{85}{section.2.13}%
\contentsline {section}{\numberline {2.14}Examples of vector spaces and transformations}{85}{section.2.14}%
\contentsline {chapter}{\numberline {3}Analysis}{87}{chapter.3}%
\contentsline {section}{\numberline {3.1}Continuity}{88}{section.3.1}%
\contentsline {section}{\numberline {3.2}Limits}{89}{section.3.2}%
\contentsline {section}{\numberline {3.3}Asymptote}{90}{section.3.3}%
\contentsline {section}{\numberline {3.4}Differentiation}{90}{section.3.4}%
\contentsline {subsection}{\numberline {3.4.1}Derivatives of some simple functions}{91}{subsection.3.4.1}%
\contentsline {subsection}{\numberline {3.4.2}Approximations,infinitesimals,differentials}{94}{subsection.3.4.2}%
\contentsline {subsection}{\numberline {3.4.3}Derivative of composite functions, chain rule}{95}{subsection.3.4.3}%
\contentsline {subsection}{\numberline {3.4.4}Derivative of parametric functions}{96}{subsection.3.4.4}%
\contentsline {subsection}{\numberline {3.4.5}Derivative of inverse functions}{97}{subsection.3.4.5}%
\contentsline {subsection}{\numberline {3.4.6}Implicit differentiation}{99}{subsection.3.4.6}%
\contentsline {section}{\numberline {3.5}Inverse differentiation, integration}{100}{section.3.5}%
\contentsline {subsection}{\numberline {3.5.1}Differential operator}{103}{subsection.3.5.1}%
\contentsline {section}{\numberline {3.6}Definite integral}{105}{section.3.6}%
\contentsline {section}{\numberline {3.7}Indefinite integral}{107}{section.3.7}%
\contentsline {section}{\numberline {3.8}Circular functions}{111}{section.3.8}%
\contentsline {subsection}{\numberline {3.8.1}Circular functions}{112}{subsection.3.8.1}%
\contentsline {subsection}{\numberline {3.8.2}derivative of $\sin x$}{113}{subsection.3.8.2}%
\contentsline {subsection}{\numberline {3.8.3}Inverse differentation of circular functions}{116}{subsection.3.8.3}%
\contentsline {subsection}{\numberline {3.8.4}Inverse circular functions}{117}{subsection.3.8.4}%
\contentsline {section}{\numberline {3.9}Graph of functions}{121}{section.3.9}%
\contentsline {section}{\numberline {3.10}Shape of curves}{122}{section.3.10}%
\contentsline {section}{\numberline {3.11}Zeros of functions}{122}{section.3.11}%
\contentsline {subsection}{\numberline {3.11.1}Method 1}{122}{subsection.3.11.1}%
\contentsline {subsection}{\numberline {3.11.2}Regula falsi}{122}{subsection.3.11.2}%
\contentsline {subsection}{\numberline {3.11.3}Newton method}{123}{subsection.3.11.3}%
\contentsline {section}{\numberline {3.12}Calculating limits}{123}{section.3.12}%
\contentsline {section}{\numberline {3.13}Logarithms defined without the use of exponents}{123}{section.3.13}%
\contentsline {subsection}{\numberline {3.13.1}Intro}{123}{subsection.3.13.1}%
\contentsline {subsection}{\numberline {3.13.2}Base}{125}{subsection.3.13.2}%
\contentsline {subsection}{\numberline {3.13.3}Estimates of e}{126}{subsection.3.13.3}%
\contentsline {subsection}{\numberline {3.13.4}Differential equation for logarithm}{126}{subsection.3.13.4}%
\contentsline {section}{\numberline {3.14}Logarithms defined with exponents}{127}{section.3.14}%
\contentsline {section}{\numberline {3.15}Inverse Logarithms a.k.a exponents}{130}{section.3.15}%
\contentsline {subsection}{\numberline {3.15.1}Inverse natural logarithm}{130}{subsection.3.15.1}%
\contentsline {subsection}{\numberline {3.15.2}Derivative of inverse logarithm}{130}{subsection.3.15.2}%
\contentsline {subsection}{\numberline {3.15.3}Inverse ln as a solution of a differential equation}{131}{subsection.3.15.3}%
\contentsline {subsection}{\numberline {3.15.4}Exponential function with base a}{132}{subsection.3.15.4}%
\contentsline {subsubsection}{Natural exponent}{132}{section*.8}%
\contentsline {subsubsection}{Rational exponent}{133}{section*.9}%
\contentsline {subsubsection}{Real exponent, exponential function}{133}{section*.10}%
\contentsline {subsection}{\numberline {3.15.5}Derivative of exponential function with base a}{133}{subsection.3.15.5}%
\contentsline {subsection}{\numberline {3.15.6}Properties}{135}{subsection.3.15.6}%
\contentsline {subsection}{\numberline {3.15.7}Exponential equations}{136}{subsection.3.15.7}%
\contentsline {section}{\numberline {3.16}Hyperbolic functions}{136}{section.3.16}%
\contentsline {subsubsection}{Circular functions}{136}{section*.11}%
\contentsline {subsubsection}{Hyperbolic functions}{136}{section*.13}%
\contentsline {subsubsection}{Relation with exponential functions}{137}{section*.14}%
\contentsline {subsubsection}{Hyperbolic tangent}{139}{section*.15}%
\contentsline {subsubsection}{Differential equation}{139}{section*.16}%
\contentsline {section}{\numberline {3.17}Inverse hyperbolic functions}{140}{section.3.17}%
\contentsline {subsubsection}{Inverse sinh}{140}{section*.17}%
\contentsline {subsubsection}{Integral of $1/\sqrt {1+x^2}$}{140}{section*.18}%
\contentsline {subsubsection}{Hyperbolic functions as logarithms}{141}{section*.19}%
\contentsline {subsubsection}{cosh}{142}{section*.20}%
\contentsline {subsubsection}{Derivative of cosh }{142}{section*.21}%
\contentsline {section}{\numberline {3.18}Integration techniques}{143}{section.3.18}%
\contentsline {subsection}{\numberline {3.18.1}Fundamental integrals 1}{143}{subsection.3.18.1}%
\contentsline {subsection}{\numberline {3.18.2}Intro}{144}{subsection.3.18.2}%
\contentsline {subsection}{\numberline {3.18.3}Substitution}{145}{subsection.3.18.3}%
\contentsline {subsection}{\numberline {3.18.4}Fundamental integrals 2}{146}{subsection.3.18.4}%
\contentsline {subsection}{\numberline {3.18.5}Sum and difference of squares and trigoniometric substitutions}{148}{subsection.3.18.5}%
\contentsline {subsection}{\numberline {3.18.6}Integration by parts}{149}{subsection.3.18.6}%
\contentsline {subsection}{\numberline {3.18.7}Recursion}{151}{subsection.3.18.7}%
\contentsline {subsection}{\numberline {3.18.8}Partial fractions}{151}{subsection.3.18.8}%
\contentsline {subsection}{\numberline {3.18.9}Polynomials in sin and cos}{152}{subsection.3.18.9}%
\contentsline {subsection}{\numberline {3.18.10}Som formulas}{152}{subsection.3.18.10}%
\contentsline {subsection}{\numberline {3.18.11}Goniometric substitution}{153}{subsection.3.18.11}%
\contentsline {subsection}{\numberline {3.18.12}Powers of goniometric functions}{153}{subsection.3.18.12}%
\contentsline {section}{\numberline {3.19}Improper integrals}{153}{section.3.19}%
\contentsline {section}{\numberline {3.20}Applications}{154}{section.3.20}%
\contentsline {subsection}{\numberline {3.20.1}Surface integrals}{154}{subsection.3.20.1}%
\contentsline {subsection}{\numberline {3.20.2}Volume integrals}{156}{subsection.3.20.2}%
\contentsline {subsubsection}{Body of revolution}{156}{section*.22}%
\contentsline {subsection}{\numberline {3.20.3}Length of curves}{157}{subsection.3.20.3}%
\contentsline {subsection}{\numberline {3.20.4}Surface of a body of revolution}{157}{subsection.3.20.4}%
\contentsline {subsection}{\numberline {3.20.5}Center of gravity}{158}{subsection.3.20.5}%
\contentsline {chapter}{\numberline {4}Complex analysis}{159}{chapter.4}%
\contentsline {section}{\numberline {4.1}Complex numbers}{160}{section.4.1}%
\contentsline {section}{\numberline {4.2}Complex functions}{166}{section.4.2}%
\contentsline {section}{\numberline {4.3}Limits}{172}{section.4.3}%
\contentsline {section}{\numberline {4.4}Continuity}{174}{section.4.4}%
\contentsline {section}{\numberline {4.5}Analytic functions}{178}{section.4.5}%
\contentsline {section}{\numberline {4.6}Polar representation}{183}{section.4.6}%
\contentsline {section}{\numberline {4.7}Harmonic functions, laplace equation,orthogonal families}{185}{section.4.7}%
\contentsline {section}{\numberline {4.8}Differential operators}{189}{section.4.8}%
\contentsline {section}{\numberline {4.9}Complex Exponential}{192}{section.4.9}%
\contentsline {section}{\numberline {4.10}Complex natural logarithmic}{194}{section.4.10}%
\contentsline {section}{\numberline {4.11}Complex Power}{197}{section.4.11}%
\contentsline {section}{\numberline {4.12}Complex Trigonometric}{199}{section.4.12}%
\contentsline {section}{\numberline {4.13}Complex hyperbolic}{202}{section.4.13}%
\contentsline {section}{\numberline {4.14}Complex inverse trigonometric functions}{205}{section.4.14}%
\contentsline {section}{\numberline {4.15}complex equations}{207}{section.4.15}%
\contentsline {section}{\numberline {4.16}Line integrals and contour integration}{209}{section.4.16}%
\contentsline {section}{\numberline {4.17}Anti-derivatives}{213}{section.4.17}%
\contentsline {section}{\numberline {4.18}Cauchy's integral formula}{215}{section.4.18}%
\contentsline {section}{\numberline {4.19}Laurent and taylor series}{222}{section.4.19}%
\contentsline {section}{\numberline {4.20}Zeros and poles,singularities}{227}{section.4.20}%
\contentsline {section}{\numberline {4.21}Residues}{228}{section.4.21}%
\contentsline {section}{\numberline {4.22}Physical applications}{233}{section.4.22}%
\contentsline {section}{\numberline {4.23}Electrostatics}{237}{section.4.23}%
\contentsline {section}{\numberline {4.24}Complex electrostatic potential}{237}{section.4.24}%
\contentsline {chapter}{\numberline {5}Transforms}{240}{chapter.5}%
\contentsline {section}{\numberline {5.1}FS: Fourier series of periodic functions}{240}{section.5.1}%
\contentsline {section}{\numberline {5.2}Fourier-series examples}{248}{section.5.2}%
\contentsline {section}{\numberline {5.3}CFT : Continuous Fourier transform}{253}{section.5.3}%
\contentsline {section}{\numberline {5.4}Laplace transform}{259}{section.5.4}%
\contentsline {section}{\numberline {5.5}Discrete Fourier transform}{272}{section.5.5}%
\contentsline {section}{\numberline {5.6}Fractional Fourier transform}{272}{section.5.6}%
\contentsline {section}{\numberline {5.7}Z-transform}{272}{section.5.7}%
\contentsline {section}{\numberline {5.8}Inverse Z-transform methods}{277}{section.5.8}%
\contentsline {subsection}{\numberline {5.8.1}By inspection}{277}{subsection.5.8.1}%
\contentsline {subsection}{\numberline {5.8.2}Power expansion}{277}{subsection.5.8.2}%
\contentsline {subsection}{\numberline {5.8.3}Partial fraction expansion}{278}{subsection.5.8.3}%
\contentsline {subsection}{\numberline {5.8.4}Contour integration}{279}{subsection.5.8.4}%
\contentsline {section}{\numberline {5.9}DTFT: Discrete Time Fourier Transform}{280}{section.5.9}%
\contentsline {section}{\numberline {5.10}DFT: Discrete Fourier Transform}{281}{section.5.10}%
\contentsline {chapter}{\numberline {6} Digital signal processing}{285}{chapter.6}%
\contentsline {section}{\numberline {6.1}Discrete time signals and systems}{286}{section.6.1}%
\contentsline {subsection}{\numberline {6.1.1}Discrete signals}{286}{subsection.6.1.1}%
\contentsline {subsection}{\numberline {6.1.2}Special discrete time signals}{286}{subsection.6.1.2}%
\contentsline {subsection}{\numberline {6.1.3}Discrete time systems}{287}{subsection.6.1.3}%
\contentsline {subsection}{\numberline {6.1.4}LSI systems}{287}{subsection.6.1.4}%
\contentsline {subsection}{\numberline {6.1.5}Stable and causal systems}{288}{subsection.6.1.5}%
\contentsline {subsection}{\numberline {6.1.6}LSI systems defined by difference equations}{289}{subsection.6.1.6}%
\contentsline {section}{\numberline {6.2}Frequency representation of LSI systems}{291}{section.6.2}%
\contentsline {subsection}{\numberline {6.2.1}Frequency response}{291}{subsection.6.2.1}%
\contentsline {subsection}{\numberline {6.2.2}Sinusoidal response of an LSI system}{292}{subsection.6.2.2}%
\contentsline {subsection}{\numberline {6.2.3}Example}{292}{subsection.6.2.3}%
\contentsline {subsection}{\numberline {6.2.4}Properties of frequency response}{292}{subsection.6.2.4}%
\contentsline {section}{\numberline {6.3}Math : Fourier transform , Z-transform, Fourier series}{293}{section.6.3}%
\contentsline {subsection}{\numberline {6.3.1}DTFT Discrete Time Fourier transform}{293}{subsection.6.3.1}%
\contentsline {subsection}{\numberline {6.3.2}Fourier Transform of a signal}{293}{subsection.6.3.2}%
\contentsline {subsection}{\numberline {6.3.3}Sequences which are real}{294}{subsection.6.3.3}%
\contentsline {subsection}{\numberline {6.3.4}Z-transform}{295}{subsection.6.3.4}%
\contentsline {subsection}{\numberline {6.3.5}Geometric interpretation of frequency response}{296}{subsection.6.3.5}%
\contentsline {subsection}{\numberline {6.3.6}Discrete Fourier series and transform}{297}{subsection.6.3.6}%
\contentsline {subsection}{\numberline {6.3.7}Intro}{297}{subsection.6.3.7}%
\contentsline {section}{\numberline {6.4}Sampling theorem in continuous-time}{297}{section.6.4}%
\contentsline {subsubsection}{Step 1: Impulse train}{297}{section*.27}%
\contentsline {subsubsection}{Step 2 : Sampling with impulse train}{298}{section*.28}%
\contentsline {subsubsection}{Step 3 : continuous time to discrete time converter}{299}{section*.29}%
\contentsline {subsubsection}{Step 4 : sinc function}{299}{section*.30}%
\contentsline {subsubsection}{Step 5 : Sampling theorema}{299}{section*.31}%
\contentsline {section}{\numberline {6.5}Linear constant coefficient difference equation}{300}{section.6.5}%
\contentsline {section}{\numberline {6.6}Boxcar sequence}{300}{section.6.6}%
\contentsline {section}{\numberline {6.7}LSI systems corresponding to constant coefficient difference equations}{301}{section.6.7}%
\contentsline {subsection}{\numberline {6.7.1}Basic block delay by 1}{301}{subsection.6.7.1}%
\contentsline {subsection}{\numberline {6.7.2}Delay multiplication addition block}{301}{subsection.6.7.2}%
\contentsline {section}{\numberline {6.8}Infinite impule response systems}{301}{section.6.8}%
\contentsline {subsection}{\numberline {6.8.1}Cascade structure}{302}{subsection.6.8.1}%
\contentsline {subsection}{\numberline {6.8.2}Parallel structure}{302}{subsection.6.8.2}%
\contentsline {section}{\numberline {6.9}Finite impulse response structure}{302}{section.6.9}%
\contentsline {subsection}{\numberline {6.9.1}Linear phase FIR systems}{303}{subsection.6.9.1}%
\contentsline {subsection}{\numberline {6.9.2}Frequency sampling structure}{303}{subsection.6.9.2}%
\contentsline {section}{\numberline {6.10}Design techniques digital filters}{304}{section.6.10}%
\contentsline {subsection}{\numberline {6.10.1}Intro}{304}{subsection.6.10.1}%
\contentsline {subsection}{\numberline {6.10.2}Techniques}{304}{subsection.6.10.2}%
\contentsline {subsubsection}{Analytical}{304}{section*.33}%
\contentsline {subsubsection}{Mapping continuous time to descrite time}{304}{section*.34}%
\contentsline {subsubsection}{Computer aided algorithmic}{305}{section*.35}%
\contentsline {section}{\numberline {6.11}Infinite impulse response filters, or recursive filter}{305}{section.6.11}%
\contentsline {subsection}{\numberline {6.11.1}Map differentials to differences}{305}{subsection.6.11.1}%
\contentsline {subsection}{\numberline {6.11.2}A: Method of impulse invariance}{306}{subsection.6.11.2}%
\contentsline {subsection}{\numberline {6.11.3}Impulse invariance, partial fraction expansion}{306}{subsection.6.11.3}%
\contentsline {subsection}{\numberline {6.11.4}B: Bilinear transformation}{307}{subsection.6.11.4}%
\contentsline {subsection}{\numberline {6.11.5}Algorithmic design of IIR using mean square error}{307}{subsection.6.11.5}%
\contentsline {subsection}{\numberline {6.11.6}Least squares inverse design}{307}{subsection.6.11.6}%
\contentsline {subsection}{\numberline {6.11.7}Example}{308}{subsection.6.11.7}%
\contentsline {section}{\numberline {6.12}Finite impulse response filters or non-recursive filters}{308}{section.6.12}%
\contentsline {subsection}{\numberline {6.12.1}Design of FIR filters}{309}{subsection.6.12.1}%
\contentsline {subsection}{\numberline {6.12.2}Window method}{309}{subsection.6.12.2}%
\contentsline {subsection}{\numberline {6.12.3}Frequency sampling}{309}{subsection.6.12.3}%
\contentsline {subsection}{\numberline {6.12.4}Algorithmic, equiripple design}{310}{subsection.6.12.4}%
\contentsline {section}{\numberline {6.13}Math : Fast Fourier transfrom}{310}{section.6.13}%
\contentsline {chapter}{\numberline {7}Differential equations}{311}{chapter.7}%
\contentsline {section}{\numberline {7.1}Linear First order differential equations}{311}{section.7.1}%
\contentsline {section}{\numberline {7.2}Bernoulli equations}{313}{section.7.2}%
\contentsline {section}{\numberline {7.3}Separable (non-linear) differential equations}{313}{section.7.3}%
\contentsline {section}{\numberline {7.4}Exact (non-linear) differential equations}{315}{section.7.4}%
\contentsline {section}{\numberline {7.5}Integrating factor}{316}{section.7.5}%
\contentsline {section}{\numberline {7.6}Homogeneous non-linear differential equations}{317}{section.7.6}%
\contentsline {section}{\numberline {7.7}Orthogonal trajectories}{317}{section.7.7}%
\contentsline {section}{\numberline {7.8}Second order differential equations}{318}{section.7.8}%
\contentsline {section}{\numberline {7.9}Second order linear differential equations}{319}{section.7.9}%
\contentsline {section}{\numberline {7.10}Second order linear homogeneous diff. eq. with const. coeff.}{324}{section.7.10}%
\contentsline {section}{\numberline {7.11}Non homogeneous second order differential equation}{326}{section.7.11}%
\contentsline {section}{\numberline {7.12}Method of undetermined coefficients}{328}{section.7.12}%
\contentsline {section}{\numberline {7.13}Variation of parameters for general linear differential equations.}{329}{section.7.13}%
\contentsline {section}{\numberline {7.14}Higher order linear equations}{332}{section.7.14}%
\contentsline {chapter}{\numberline {8}Riemann formulas}{333}{chapter.8}%
\contentsline {section}{\numberline {8.1}Formulas for sin(x)}{333}{section.8.1}%
\contentsline {subsection}{\numberline {8.1.1}McLaurin series of sin(x)}{333}{subsection.8.1.1}%
\contentsline {subsection}{\numberline {8.1.2}Euler product of sin(x)}{333}{subsection.8.1.2}%
\contentsline {section}{\numberline {8.2}Formulas with $pi$}{335}{section.8.2}%
\contentsline {subsection}{\numberline {8.2.1}Basel problem}{335}{subsection.8.2.1}%
\contentsline {subsection}{\numberline {8.2.2}Sum of the reciprocal fourth powers}{335}{subsection.8.2.2}%
\contentsline {subsection}{\numberline {8.2.3}Wallis product}{337}{subsection.8.2.3}%
\contentsline {section}{\numberline {8.3}Zeta function}{338}{section.8.3}%
\contentsline {subsection}{\numberline {8.3.1}Intro 1}{338}{subsection.8.3.1}%
\contentsline {subsection}{\numberline {8.3.2}Intro 2}{338}{subsection.8.3.2}%
\contentsline {subsection}{\numberline {8.3.3}Special values}{339}{subsection.8.3.3}%
\contentsline {section}{\numberline {8.4}Euler's product formula}{339}{section.8.4}%
\contentsline {section}{\numberline {8.5}Lemma about relative prime numbers}{339}{section.8.5}%
\contentsline {section}{\numberline {8.6}Eta function}{340}{section.8.6}%
\contentsline {section}{\numberline {8.7}Bose integral}{340}{section.8.7}%
\contentsline {section}{\numberline {8.8}Sum of series using fourier series}{341}{section.8.8}%
\contentsline {subsection}{\numberline {8.8.1}Parseval's theorem}{341}{subsection.8.8.1}%
\contentsline {subsection}{\numberline {8.8.2}Application $f(x)=x$}{342}{subsection.8.8.2}%
\contentsline {subsection}{\numberline {8.8.3}Application: $f(x)=x^2$}{344}{subsection.8.8.3}%
\contentsline {chapter}{\numberline {9}Vectors in Cartesian orthonormal 3D-space }{346}{chapter.9}%
\contentsline {subsection}{\numberline {9.0.1}Vectors and scalars}{346}{subsection.9.0.1}%
\contentsline {subsection}{\numberline {9.0.2}Dot and cross product}{349}{subsection.9.0.2}%
\contentsline {subsubsection}{Reciprocal set of vectors}{350}{section*.41}%
\contentsline {subsection}{\numberline {9.0.3}Vector differentiation}{353}{subsection.9.0.3}%
\contentsline {subsection}{\numberline {9.0.4}Gradiant,divergence,curl}{357}{subsection.9.0.4}%
\contentsline {subsection}{\numberline {9.0.5}Vector integration}{361}{subsection.9.0.5}%
\contentsline {subsection}{\numberline {9.0.6}Surface integrals}{362}{subsection.9.0.6}%
\contentsline {subsection}{\numberline {9.0.7}Divergence theorem,stokes theorem,integral threorems}{365}{subsection.9.0.7}%
\contentsline {section}{\numberline {9.1}Curvilinear coordinates}{368}{section.9.1}%
\contentsline {subsection}{\numberline {9.1.1}Unit vectors in curvilinear systems}{368}{subsection.9.1.1}%
\contentsline {subsection}{\numberline {9.1.2}General arc length}{370}{subsection.9.1.2}%
\contentsline {subsection}{\numberline {9.1.3}Arc length for orthogonal systems}{370}{subsection.9.1.3}%
\contentsline {subsection}{\numberline {9.1.4}Gradient}{371}{subsection.9.1.4}%
\contentsline {subsection}{\numberline {9.1.5}Cylindrical coordinates}{371}{subsection.9.1.5}%
\contentsline {subsection}{\numberline {9.1.6}Spherical coordinates}{371}{subsection.9.1.6}%
\contentsline {subsection}{\numberline {9.1.7}Transformation from rectangular to cylindrical coordinates}{371}{subsection.9.1.7}%
\contentsline {subsection}{\numberline {9.1.8}Contravariant unit base vectors for cylindrical coordinates}{372}{subsection.9.1.8}%
\contentsline {subsection}{\numberline {9.1.9}Arc length in cylindrical coordinates}{372}{subsection.9.1.9}%
\contentsline {chapter}{\numberline {10}Classical mechanics}{373}{chapter.10}%
\contentsline {section}{\numberline {10.1}Definitions}{373}{section.10.1}%
\contentsline {subsection}{\numberline {10.1.1}Coordinates}{373}{subsection.10.1.1}%
\contentsline {subsection}{\numberline {10.1.2}Units}{373}{subsection.10.1.2}%
\contentsline {subsection}{\numberline {10.1.3}Events}{373}{subsection.10.1.3}%
\contentsline {subsection}{\numberline {10.1.4}Reference frame}{373}{subsection.10.1.4}%
\contentsline {subsection}{\numberline {10.1.5}Inertial reference frame}{373}{subsection.10.1.5}%
\contentsline {subsection}{\numberline {10.1.6}Kinematics}{373}{subsection.10.1.6}%
\contentsline {subsection}{\numberline {10.1.7}Mass,mole}{373}{subsection.10.1.7}%
\contentsline {subsection}{\numberline {10.1.8}Vectors}{374}{subsection.10.1.8}%
\contentsline {subsubsection}{Displacement}{374}{section*.43}%
\contentsline {subsubsection}{Position}{374}{section*.44}%
\contentsline {subsubsection}{Dot product,cross product}{374}{section*.45}%
\contentsline {subsubsection}{Rotation}{374}{section*.46}%
\contentsline {subsection}{\numberline {10.1.9}Law of nature}{374}{subsection.10.1.9}%
\contentsline {section}{\numberline {10.2}Kinematics}{374}{section.10.2}%
\contentsline {subsection}{\numberline {10.2.1}Uniform motion}{374}{subsection.10.2.1}%
\contentsline {subsection}{\numberline {10.2.2}Non-uniform motion}{375}{subsection.10.2.2}%
\contentsline {subsection}{\numberline {10.2.3}Motion with constant acceleration}{376}{subsection.10.2.3}%
\contentsline {subsubsection}{Without initial velocity}{376}{section*.47}%
\contentsline {subsubsection}{With initial velocity}{376}{section*.48}%
\contentsline {subsection}{\numberline {10.2.4}Acceleration as function of speed and distance}{377}{subsection.10.2.4}%
\contentsline {subsection}{\numberline {10.2.5}Gravity, take acceleration as given}{377}{subsection.10.2.5}%
\contentsline {subsection}{\numberline {10.2.6}Projectiles}{377}{subsection.10.2.6}%
\contentsline {subsubsection}{Projectile at rest dropped from height h}{377}{section*.49}%
\contentsline {subsubsection}{Horizontal projectile}{378}{section*.50}%
\contentsline {subsubsection}{Vertical projectile (upwards)}{378}{section*.51}%
\contentsline {subsubsection}{Cannonnball, Projectile with horizontal and vertical speed}{378}{section*.52}%
\contentsline {subsubsection}{Projectile at angle alpha}{378}{section*.53}%
\contentsline {section}{\numberline {10.3}Galilean Transformation}{379}{section.10.3}%
\contentsline {section}{\numberline {10.4}Dynamics,Newton's Laws}{379}{section.10.4}%
\contentsline {subsection}{\numberline {10.4.1}Newton's First Law: Law of inertia,definition inertial reference frame}{379}{subsection.10.4.1}%
\contentsline {subsection}{\numberline {10.4.2}Newton's Second Law: Law of dynamics}{380}{subsection.10.4.2}%
\contentsline {subsection}{\numberline {10.4.3}Law: Superposition of forces}{380}{subsection.10.4.3}%
\contentsline {subsection}{\numberline {10.4.4}Newton's third law: Law of reaction}{380}{subsection.10.4.4}%
\contentsline {subsection}{\numberline {10.4.5}Momentum}{380}{subsection.10.4.5}%
\contentsline {subsubsection}{Newton's first law}{381}{section*.54}%
\contentsline {subsubsection}{Newton's second law}{381}{section*.55}%
\contentsline {subsubsection}{Newton's third law}{381}{section*.56}%
\contentsline {subsection}{\numberline {10.4.6}Newtonian relativity}{381}{subsection.10.4.6}%
\contentsline {section}{\numberline {10.5}Gravitation part I:intro}{381}{section.10.5}%
\contentsline {subsection}{\numberline {10.5.1}Newton's law of universal gravitation}{381}{subsection.10.5.1}%
\contentsline {subsection}{\numberline {10.5.2}Earth}{381}{subsection.10.5.2}%
\contentsline {subsection}{\numberline {10.5.3}Acceleration or gravitational field strength of the Earth}{382}{subsection.10.5.3}%
\contentsline {subsection}{\numberline {10.5.4}Inertial and Gravitational mass,principle of equivalence}{382}{subsection.10.5.4}%
\contentsline {subsubsection}{Inertial mass or slow mass}{382}{section*.57}%
\contentsline {subsubsection}{Gravitational mass or heavy mass}{382}{section*.58}%
\contentsline {subsubsection}{Mass}{382}{section*.59}%
\contentsline {subsection}{\numberline {10.5.5}Einstein's principle of equivalence}{383}{subsection.10.5.5}%
\contentsline {section}{\numberline {10.6}Solutions to the equation of motion}{383}{section.10.6}%
\contentsline {subsection}{\numberline {10.6.1}Fundamental forces}{383}{subsection.10.6.1}%
\contentsline {subsection}{\numberline {10.6.2}Static equilibrium}{383}{subsection.10.6.2}%
\contentsline {subsection}{\numberline {10.6.3}Gravity and weight}{383}{subsection.10.6.3}%
\contentsline {subsection}{\numberline {10.6.4}Motion with a constant force}{383}{subsection.10.6.4}%
\contentsline {subsection}{\numberline {10.6.5} Tension in an ACME}{383}{subsection.10.6.5}%
\contentsline {subsection}{\numberline {10.6.6}Fluid pressure}{383}{subsection.10.6.6}%
\contentsline {subsection}{\numberline {10.6.7}Projectiles}{383}{subsection.10.6.7}%
\contentsline {subsection}{\numberline {10.6.8}Frictionless pulley, Atwoods Machine }{384}{subsection.10.6.8}%
\contentsline {subsection}{\numberline {10.6.9}Sliding down an inclined plane}{384}{subsection.10.6.9}%
\contentsline {subsection}{\numberline {10.6.10}Sliding down an inclined plane II}{385}{subsection.10.6.10}%
\contentsline {subsection}{\numberline {10.6.11}Springs and Hooke's Law}{385}{subsection.10.6.11}%
\contentsline {subsection}{\numberline {10.6.12}Friction}{385}{subsection.10.6.12}%
\contentsline {subsubsection}{Normal Force}{385}{section*.60}%
\contentsline {subsubsection}{Kinetic friction (dynamic)}{386}{section*.61}%
\contentsline {subsubsection}{Static friction}{386}{section*.62}%
\contentsline {subsection}{\numberline {10.6.13}Sliding down with constant velocity down an inclined plane with friction}{386}{subsection.10.6.13}%
\contentsline {subsection}{\numberline {10.6.14} Drag forces}{387}{subsection.10.6.14}%
\contentsline {subsection}{\numberline {10.6.15}Terminal velocity}{387}{subsection.10.6.15}%
\contentsline {subsection}{\numberline {10.6.16}Motion of an object falling in laminair flow}{387}{subsection.10.6.16}%
\contentsline {subsection}{\numberline {10.6.17}Motion of an object falling in turbulent flow}{388}{subsection.10.6.17}%
\contentsline {subsection}{\numberline {10.6.18}Motion with variable force}{388}{subsection.10.6.18}%
\contentsline {subsection}{\numberline {10.6.19}Pseudoforces}{388}{subsection.10.6.19}%
\contentsline {subsection}{\numberline {10.6.20}Weight in an elevator going up}{389}{subsection.10.6.20}%
\contentsline {section}{\numberline {10.7}Circular solutions to the equation of motion}{389}{section.10.7}%
\contentsline {subsection}{\numberline {10.7.1}Uniform circular motion}{389}{subsection.10.7.1}%
\contentsline {subsection}{\numberline {10.7.2}Centripetal acceleration}{389}{subsection.10.7.2}%
\contentsline {subsection}{\numberline {10.7.3}Tangential and centripetal acceleration}{390}{subsection.10.7.3}%
\contentsline {subsection}{\numberline {10.7.4}Ball on a string}{390}{subsection.10.7.4}%
\contentsline {subsection}{\numberline {10.7.5}Conic Pendulum}{390}{subsection.10.7.5}%
\contentsline {section}{\numberline {10.8}Work and Energy}{391}{section.10.8}%
\contentsline {subsection}{\numberline {10.8.1}Conservation Laws}{391}{subsection.10.8.1}%
\contentsline {subsection}{\numberline {10.8.2}Definition of work}{391}{subsection.10.8.2}%
\contentsline {subsubsection}{Definition work in one Dimension}{391}{section*.63}%
\contentsline {subsubsection}{Work in 2-D}{391}{section*.64}%
\contentsline {subsubsection}{Work in gravity field}{391}{section*.65}%
\contentsline {subsubsection}{Work in 3-D}{392}{section*.66}%
\contentsline {subsection}{\numberline {10.8.3}Definition of kinetic energy}{392}{subsection.10.8.3}%
\contentsline {subsection}{\numberline {10.8.4}Work-energy theorem}{393}{subsection.10.8.4}%
\contentsline {subsection}{\numberline {10.8.5}Conservative force}{393}{subsection.10.8.5}%
\contentsline {subsection}{\numberline {10.8.6}Potential energy}{393}{subsection.10.8.6}%
\contentsline {subsubsection}{Definition of potential energy of a conservative force}{393}{section*.67}%
\contentsline {subsubsection}{Calculation of force from potential energy}{394}{section*.68}%
\contentsline {subsubsection}{Potential energy in gravity}{394}{section*.69}%
\contentsline {subsection}{\numberline {10.8.7}Conservation of mechanical energy}{394}{subsection.10.8.7}%
\contentsline {subsubsection}{Law: Conservation of mechanical energy}{394}{section*.70}%
\contentsline {subsubsection}{Proof: conservation of mechanical energy,free fall}{395}{section*.71}%
\contentsline {subsubsection}{Example :Conservation of mechanical energy for gravity I,approximation}{395}{section*.72}%
\contentsline {subsubsection}{Example :Conservation of mechanical energy for a spring }{395}{section*.73}%
\contentsline {subsubsection}{Example :Conservation of mechanical energy for gravity II}{395}{section*.74}%
\contentsline {subsubsection}{Curve of the potential}{395}{section*.75}%
\contentsline {subsubsection}{Note : }{396}{section*.76}%
\contentsline {subsection}{\numberline {10.8.8}Generalized work-mechanical energy theorem}{396}{subsection.10.8.8}%
\contentsline {subsubsection}{Example:: Sliding down an inclined plane with friction}{396}{section*.77}%
\contentsline {section}{\numberline {10.9}Power}{396}{section.10.9}%
\contentsline {subsubsection}{Rocket}{397}{section*.78}%
\contentsline {section}{\numberline {10.10}Equilibrium}{398}{section.10.10}%
\contentsline {section}{\numberline {10.11}Gravitation part II}{398}{section.10.11}%
\contentsline {subsection}{\numberline {10.11.1}Circular orbits}{398}{subsection.10.11.1}%
\contentsline {subsection}{\numberline {10.11.2}First cosmical speed}{398}{subsection.10.11.2}%
\contentsline {subsection}{\numberline {10.11.3}Gravitational potential energy}{399}{subsection.10.11.3}%
\contentsline {subsection}{\numberline {10.11.4}Energy of circular orbits}{399}{subsection.10.11.4}%
\contentsline {subsection}{\numberline {10.11.5}Gravitational potential energy near surface of the Earth}{399}{subsection.10.11.5}%
\contentsline {subsection}{\numberline {10.11.6}Newton's Theorem}{400}{subsection.10.11.6}%
\contentsline {subsection}{\numberline {10.11.7}Vertical escape velocity}{400}{subsection.10.11.7}%
\contentsline {subsection}{\numberline {10.11.8}Elliptical orbits,Kepler's Laws}{401}{subsection.10.11.8}%
\contentsline {subsection}{\numberline {10.11.9}Newton}{402}{subsection.10.11.9}%
\contentsline {subsection}{\numberline {10.11.10}Gravitation}{402}{subsection.10.11.10}%
\contentsline {subsection}{\numberline {10.11.11}Elliptical motion}{402}{subsection.10.11.11}%
\contentsline {subsection}{\numberline {10.11.12}Energy of an orbit}{403}{subsection.10.11.12}%
\contentsline {section}{\numberline {10.12}Gravitation part III}{403}{section.10.12}%
\contentsline {subsection}{\numberline {10.12.1}The gravitational field of a mass M}{403}{subsection.10.12.1}%
\contentsline {subsection}{\numberline {10.12.2}Differential and integral form of gravitational field}{403}{subsection.10.12.2}%
\contentsline {subsection}{\numberline {10.12.3}Divergence of a vector field}{403}{subsection.10.12.3}%
\contentsline {subsection}{\numberline {10.12.4}Gaus law for gravity integral form}{404}{subsection.10.12.4}%
\contentsline {subsection}{\numberline {10.12.5}Gaus law for gravity differential form}{404}{subsection.10.12.5}%
\contentsline {subsection}{\numberline {10.12.6}Tidal effects}{404}{subsection.10.12.6}%
\contentsline {subsection}{\numberline {10.12.7}Gravitational potential field}{404}{subsection.10.12.7}%
\contentsline {subsection}{\numberline {10.12.8}Relation between gravitational field and gravitational potential field}{404}{subsection.10.12.8}%
\contentsline {subsection}{\numberline {10.12.9}Poisson's equation}{405}{subsection.10.12.9}%
\contentsline {section}{\numberline {10.13}Systems of particles}{405}{section.10.13}%
\contentsline {subsection}{\numberline {10.13.1}Conservation of momentum}{405}{subsection.10.13.1}%
\contentsline {subsection}{\numberline {10.13.2}Definitions}{406}{subsection.10.13.2}%
\contentsline {subsection}{\numberline {10.13.3}Motion of center of mass}{406}{subsection.10.13.3}%
\contentsline {subsection}{\numberline {10.13.4}Momentum 2}{406}{subsection.10.13.4}%
\contentsline {subsection}{\numberline {10.13.5}Potential energy}{406}{subsection.10.13.5}%
\contentsline {subsection}{\numberline {10.13.6}Motion of center of mass,momentum}{407}{subsection.10.13.6}%
\contentsline {subsection}{\numberline {10.13.7}Energy of a system of particles}{407}{subsection.10.13.7}%
\contentsline {subsection}{\numberline {10.13.8}Motion of a rocket}{407}{subsection.10.13.8}%
\contentsline {section}{\numberline {10.14}Collisions}{407}{section.10.14}%
\contentsline {subsection}{\numberline {10.14.1}Impulsive force}{408}{subsection.10.14.1}%
\contentsline {subsection}{\numberline {10.14.2}Average force}{408}{subsection.10.14.2}%
\contentsline {subsection}{\numberline {10.14.3}Conservation of momentum}{408}{subsection.10.14.3}%
\contentsline {subsection}{\numberline {10.14.4}Elastic Collision 1-dim}{409}{subsection.10.14.4}%
\contentsline {subsection}{\numberline {10.14.5}Non-elastic Collision}{409}{subsection.10.14.5}%
\contentsline {subsection}{\numberline {10.14.6}Collisions of elementary particles}{409}{subsection.10.14.6}%
\contentsline {section}{\numberline {10.15}Kinematics of a rigid body}{409}{section.10.15}%
\contentsline {subsection}{\numberline {10.15.1}Motion of a rigid body}{409}{subsection.10.15.1}%
\contentsline {subsection}{\numberline {10.15.2}Rotation about a fixed axis}{410}{subsection.10.15.2}%
\contentsline {subsection}{\numberline {10.15.3}Motion with constant angular acceleration}{410}{subsection.10.15.3}%
\contentsline {section}{\numberline {10.16}Dynamics of a rigid body}{411}{section.10.16}%
\contentsline {subsection}{\numberline {10.16.1}Torque}{411}{subsection.10.16.1}%
\contentsline {subsubsection}{Turning effect}{411}{section*.79}%
\contentsline {subsubsection}{Scale}{411}{section*.80}%
\contentsline {subsubsection}{Definition Torque}{411}{section*.81}%
\contentsline {subsection}{\numberline {10.16.2}Definition Angular momentum}{411}{subsection.10.16.2}%
\contentsline {subsection}{\numberline {10.16.3}Angular momentum of a rigid body spinning around the axis of rotation}{412}{subsection.10.16.3}%
\contentsline {subsection}{\numberline {10.16.4}Equation of rotational motion}{412}{subsection.10.16.4}%
\contentsline {subsection}{\numberline {10.16.5}Conservation of angular momentum}{413}{subsection.10.16.5}%
\contentsline {subsection}{\numberline {10.16.6}Angular momentum for circular motion}{413}{subsection.10.16.6}%
\contentsline {subsubsection}{Tension in a rotating string holding a mass}{413}{section*.82}%
\contentsline {subsubsection}{Kinetic energy of the particle}{413}{section*.83}%
\contentsline {subsection}{\numberline {10.16.7}Angular momentum under central force}{413}{subsection.10.16.7}%
\contentsline {subsection}{\numberline {10.16.8}Kinetic energy of rotation}{413}{subsection.10.16.8}%
\contentsline {subsection}{\numberline {10.16.9}Definition moment of inertia of rigid bodies}{414}{subsection.10.16.9}%
\contentsline {subsection}{\numberline {10.16.10}Moments of inertia of objects}{414}{subsection.10.16.10}%
\contentsline {subsubsection}{Moment of inertia of a system of point particles}{414}{section*.84}%
\contentsline {subsubsection}{Moments of inertia of a disk}{414}{section*.85}%
\contentsline {subsubsection}{Moments of inertia of a ring}{414}{section*.86}%
\contentsline {subsubsection}{Moments of a sphere}{415}{section*.87}%
\contentsline {subsection}{\numberline {10.16.11}Parallel axis theorem}{415}{subsection.10.16.11}%
\contentsline {subsection}{\numberline {10.16.12}Work for rotation motion}{415}{subsection.10.16.12}%
\contentsline {subsection}{\numberline {10.16.13}Work energy theorem for rotational motion}{415}{subsection.10.16.13}%
\contentsline {subsection}{\numberline {10.16.14}Conservation of mechanical energy in rational motion}{416}{subsection.10.16.14}%
\contentsline {subsection}{\numberline {10.16.15}Power delivered by a torque}{416}{subsection.10.16.15}%
\contentsline {subsection}{\numberline {10.16.16}Derivation of formula for tau}{416}{subsection.10.16.16}%
\contentsline {subsection}{\numberline {10.16.17}Example 1:Precession of a gyroscope}{416}{subsection.10.16.17}%
\contentsline {subsection}{\numberline {10.16.18}Example 2:Water wheel}{416}{subsection.10.16.18}%
\contentsline {section}{\numberline {10.17}STATICS}{416}{section.10.17}%
\contentsline {section}{\numberline {10.18}Statics and elasticity}{416}{section.10.18}%
\contentsline {subsection}{\numberline {10.18.1}Mechanical advantage of lever}{416}{subsection.10.18.1}%
\contentsline {subsection}{\numberline {10.18.2}Elongation of elastic material}{417}{subsection.10.18.2}%
\contentsline {subsection}{\numberline {10.18.3}Shear}{417}{subsection.10.18.3}%
\contentsline {subsection}{\numberline {10.18.4}Compression}{417}{subsection.10.18.4}%
\contentsline {section}{\numberline {10.19}FLUIDS}{418}{section.10.19}%
\contentsline {section}{\numberline {10.20}OSCILLATIONS}{418}{section.10.20}%
\contentsline {section}{\numberline {10.21}WAVE EQUATION}{418}{section.10.21}%
\contentsline {section}{\numberline {10.22}SOUNDS}{418}{section.10.22}%
\contentsline {section}{\numberline {10.23}SPECIAL RELATIVITY}{418}{section.10.23}%
\contentsline {section}{\numberline {10.24}Special relativity : part I}{418}{section.10.24}%
\contentsline {subsection}{\numberline {10.24.1}Newtonian}{418}{subsection.10.24.1}%
\contentsline {subsection}{\numberline {10.24.2}Newtonian}{418}{subsection.10.24.2}%
\contentsline {subsection}{\numberline {10.24.3}Speed of light}{418}{subsection.10.24.3}%
\contentsline {subsection}{\numberline {10.24.4}Ether}{418}{subsection.10.24.4}%
\contentsline {subsection}{\numberline {10.24.5}Einstein's principle of relativity}{418}{subsection.10.24.5}%
\contentsline {subsection}{\numberline {10.24.6}Space-time}{418}{subsection.10.24.6}%
\contentsline {subsection}{\numberline {10.24.7}Event}{419}{subsection.10.24.7}%
\contentsline {subsection}{\numberline {10.24.8}worldline}{419}{subsection.10.24.8}%
\contentsline {subsection}{\numberline {10.24.9}Frames of reference}{419}{subsection.10.24.9}%
\contentsline {subsection}{\numberline {10.24.10}Inertial frames}{419}{subsection.10.24.10}%
\contentsline {subsection}{\numberline {10.24.11}Coordinate transformation}{419}{subsection.10.24.11}%
\contentsline {subsection}{\numberline {10.24.12}Galilean transformation}{419}{subsection.10.24.12}%
\contentsline {subsection}{\numberline {10.24.13}Units}{420}{subsection.10.24.13}%
\contentsline {subsection}{\numberline {10.24.14}Space-time diagram}{420}{subsection.10.24.14}%
\contentsline {subsection}{\numberline {10.24.15}Space-time diagram of the second observer}{420}{subsection.10.24.15}%
\contentsline {subsection}{\numberline {10.24.16}Simultaneity and causality}{420}{subsection.10.24.16}%
\contentsline {subsection}{\numberline {10.24.17}Invariance of the interval}{420}{subsection.10.24.17}%
\contentsline {subsection}{\numberline {10.24.18}Interpretation of the invariant interval}{421}{subsection.10.24.18}%
\contentsline {subsection}{\numberline {10.24.19}Time dilatation}{421}{subsection.10.24.19}%
\contentsline {subsection}{\numberline {10.24.20}Length contraction}{421}{subsection.10.24.20}%
\contentsline {subsection}{\numberline {10.24.21}Lorentz transformation.}{421}{subsection.10.24.21}%
\contentsline {subsection}{\numberline {10.24.22}Interval transformation rules}{422}{subsection.10.24.22}%
\contentsline {subsection}{\numberline {10.24.23}The end of simultaneity}{422}{subsection.10.24.23}%
\contentsline {subsection}{\numberline {10.24.24}Proper time and time dilation}{422}{subsection.10.24.24}%
\contentsline {subsection}{\numberline {10.24.25}Twin paradox and time dilatation}{422}{subsection.10.24.25}%
\contentsline {subsection}{\numberline {10.24.26}Length contraction}{423}{subsection.10.24.26}%
\contentsline {subsection}{\numberline {10.24.27}Velocity transformation}{423}{subsection.10.24.27}%
\contentsline {subsection}{\numberline {10.24.28}Einstein sommation convention}{423}{subsection.10.24.28}%
\contentsline {subsection}{\numberline {10.24.29}Interval and proper time}{423}{subsection.10.24.29}%
\contentsline {subsection}{\numberline {10.24.30}Minkowski metric}{424}{subsection.10.24.30}%
\contentsline {subsection}{\numberline {10.24.31}Line element or invariant interval}{424}{subsection.10.24.31}%
\contentsline {subsection}{\numberline {10.24.32}In spherical coordinates}{424}{subsection.10.24.32}%
\contentsline {subsection}{\numberline {10.24.33}wordline}{424}{subsection.10.24.33}%
\contentsline {subsection}{\numberline {10.24.34}Integral formula for proper time}{425}{subsection.10.24.34}%
\contentsline {section}{\numberline {10.25}Special relativity : part II : Mechanics}{425}{section.10.25}%
\contentsline {subsection}{\numberline {10.25.1}Conservation Laws}{425}{subsection.10.25.1}%
\contentsline {subsection}{\numberline {10.25.2}Invariance}{425}{subsection.10.25.2}%
\contentsline {subsection}{\numberline {10.25.3}Four velocity}{426}{subsection.10.25.3}%
\contentsline {subsection}{\numberline {10.25.4}Scalar product in special relativity}{426}{subsection.10.25.4}%
\contentsline {subsection}{\numberline {10.25.5}Property of four velocity}{426}{subsection.10.25.5}%
\contentsline {subsection}{\numberline {10.25.6}Relativistic momentum}{426}{subsection.10.25.6}%
\contentsline {subsection}{\numberline {10.25.7}Relativistic kinetic energy}{426}{subsection.10.25.7}%
\contentsline {subsection}{\numberline {10.25.8}Total relativistic energy}{427}{subsection.10.25.8}%
\contentsline {subsection}{\numberline {10.25.9}Four momentum}{427}{subsection.10.25.9}%
\contentsline {subsection}{\numberline {10.25.10}Energy-momentum relationship}{427}{subsection.10.25.10}%
\contentsline {subsection}{\numberline {10.25.11}Mass associated with total Energy}{427}{subsection.10.25.11}%
\contentsline {subsection}{\numberline {10.25.12}Relation total energy and momentum}{428}{subsection.10.25.12}%
\contentsline {subsection}{\numberline {10.25.13}Relativistic force}{428}{subsection.10.25.13}%
\contentsline {subsection}{\numberline {10.25.14}Four force}{428}{subsection.10.25.14}%
\contentsline {subsection}{\numberline {10.25.15}Transformation of energy and impuls}{428}{subsection.10.25.15}%
\contentsline {subsection}{\numberline {10.25.16}Transformation of force}{428}{subsection.10.25.16}%
\contentsline {chapter}{\numberline {11}Electriciteit}{429}{chapter.11}%
\contentsline {subsection}{\numberline {11.0.1}Eerste wet van Faraday}{429}{subsection.11.0.1}%
\contentsline {subsection}{\numberline {11.0.2}Electrochemisch equivalent}{429}{subsection.11.0.2}%
\contentsline {subsection}{\numberline {11.0.3}Soortelijke lading}{429}{subsection.11.0.3}%
\contentsline {subsection}{\numberline {11.0.4}Formule van Faraday}{429}{subsection.11.0.4}%
\contentsline {subsection}{\numberline {11.0.5}Elementaire lading}{430}{subsection.11.0.5}%
\contentsline {subsection}{\numberline {11.0.6}Stroomsterkte}{430}{subsection.11.0.6}%
\contentsline {subsection}{\numberline {11.0.7}Eerste wet van Joule}{430}{subsection.11.0.7}%
\contentsline {subsection}{\numberline {11.0.8}Weerstand}{430}{subsection.11.0.8}%
\contentsline {subsection}{\numberline {11.0.9}Formule van Joule}{430}{subsection.11.0.9}%
\contentsline {subsection}{\numberline {11.0.10}Parallelschakeling van weerstanden}{431}{subsection.11.0.10}%
\contentsline {subsection}{\numberline {11.0.11}Formule van Ohm}{431}{subsection.11.0.11}%
\contentsline {subsection}{\numberline {11.0.12}Vermogen}{431}{subsection.11.0.12}%
\contentsline {subsection}{\numberline {11.0.13}Serieschakeling van weerstanden}{431}{subsection.11.0.13}%
\contentsline {subsection}{\numberline {11.0.14}Parallelschakeling van weerstanden}{432}{subsection.11.0.14}%
\contentsline {subsection}{\numberline {11.0.15}Conductantie}{432}{subsection.11.0.15}%
\contentsline {subsection}{\numberline {11.0.16}Weerstanden}{432}{subsection.11.0.16}%
\contentsline {subsection}{\numberline {11.0.17}Derde wet van Pouillet}{432}{subsection.11.0.17}%
\contentsline {subsection}{\numberline {11.0.18}Condensator,stroomstoot}{432}{subsection.11.0.18}%
\contentsline {subsection}{\numberline {11.0.19}Parallelschakeling van consensatoren}{432}{subsection.11.0.19}%
\contentsline {subsection}{\numberline {11.0.20}Serieschakeling van condensatoren}{433}{subsection.11.0.20}%
\contentsline {subsection}{\numberline {11.0.21}Permitiviteit}{433}{subsection.11.0.21}%
\contentsline {subsection}{\numberline {11.0.22}Energie in een condensator}{433}{subsection.11.0.22}%
\contentsline {subsection}{\numberline {11.0.23}Krachtwerking electrisch veld van een lading}{433}{subsection.11.0.23}%
\contentsline {subsection}{\numberline {11.0.24}Veldsterkte van een homogeen veld}{434}{subsection.11.0.24}%
\contentsline {subsection}{\numberline {11.0.25}Veldsterkte van een bolveld}{434}{subsection.11.0.25}%
\contentsline {subsection}{\numberline {11.0.26}Kracht door tussen twee puntladingen}{434}{subsection.11.0.26}%
\contentsline {subsection}{\numberline {11.0.27}Electrische flux}{434}{subsection.11.0.27}%
\contentsline {subsection}{\numberline {11.0.28}Potentiaal}{435}{subsection.11.0.28}%
\contentsline {subsection}{\numberline {11.0.29}Kracht}{435}{subsection.11.0.29}%
\contentsline {subsection}{\numberline {11.0.30}Veldsterkte}{435}{subsection.11.0.30}%
\contentsline {subsection}{\numberline {11.0.31}Potentiele energie in een bolveld}{435}{subsection.11.0.31}%
\contentsline {subsection}{\numberline {11.0.32}Capaciteit van een geladen sfeer}{436}{subsection.11.0.32}%
\contentsline {subsection}{\numberline {11.0.33}Ladingsdichtheid van een sfeer}{436}{subsection.11.0.33}%
\contentsline {section}{\numberline {11.1}Electromagnetisme}{436}{section.11.1}%
\contentsline {subsection}{\numberline {11.1.1}Magnetische veldsterkte van een solenoide}{436}{subsection.11.1.1}%
\contentsline {subsection}{\numberline {11.1.2}Magnetische veldsterkte in een cilinderveld}{436}{subsection.11.1.2}%
\contentsline {subsection}{\numberline {11.1.3}Veldsterkte van een lange rechte draad}{436}{subsection.11.1.3}%
\contentsline {subsection}{\numberline {11.1.4}Electromagnetische inductie}{437}{subsection.11.1.4}%
\contentsline {subsection}{\numberline {11.1.5}Permeabiliteit}{437}{subsection.11.1.5}%
\contentsline {subsection}{\numberline {11.1.6}Lichtsnelheid}{438}{subsection.11.1.6}%
\contentsline {subsection}{\numberline {11.1.7}Inductiewet}{438}{subsection.11.1.7}%
\contentsline {subsection}{\numberline {11.1.8}De Self}{438}{subsection.11.1.8}%
\contentsline {subsection}{\numberline {11.1.9}Energie van een smoorspoel}{438}{subsection.11.1.9}%
\contentsline {subsection}{\numberline {11.1.10}Krachtwerkingvan een magnetisch veld}{439}{subsection.11.1.10}%
\contentsline {subsection}{\numberline {11.1.11}Kracht tussen twee rechte stroomgeleiders}{439}{subsection.11.1.11}%
\contentsline {section}{\numberline {11.2}Electrische wisselwerking}{439}{section.11.2}%
\contentsline {subsection}{\numberline {11.2.1}Wet van Coulomb}{439}{subsection.11.2.1}%
\contentsline {subsection}{\numberline {11.2.2}Electrisch veld}{440}{subsection.11.2.2}%
\contentsline {subsection}{\numberline {11.2.3}Constante van Faraday}{440}{subsection.11.2.3}%
\contentsline {subsection}{\numberline {11.2.4}Electrische potentiaal}{440}{subsection.11.2.4}%
\contentsline {subsection}{\numberline {11.2.5}Veldsterkte van een geladen draad}{440}{subsection.11.2.5}%
\contentsline {subsection}{\numberline {11.2.6}Electrische stroom}{441}{subsection.11.2.6}%
\contentsline {section}{\numberline {11.3}Magnetische wisselwerking}{441}{section.11.3}%
\contentsline {subsection}{\numberline {11.3.1}Magnetische kracht op een bewegende lading}{441}{subsection.11.3.1}%
\contentsline {subsection}{\numberline {11.3.2}Beweging van een lading in een magnetisch veld}{441}{subsection.11.3.2}%
\contentsline {subsection}{\numberline {11.3.3}Magnetische kracht op een draad waarin een stroom loopt}{441}{subsection.11.3.3}%
\contentsline {subsection}{\numberline {11.3.4}Magnetisch veld van een stroomvoerende draad}{442}{subsection.11.3.4}%
\contentsline {subsection}{\numberline {11.3.5}Magnetisch veld van een rechte stroomdraad}{442}{subsection.11.3.5}%
\contentsline {subsection}{\numberline {11.3.6}Kracht tussen twee stromen}{442}{subsection.11.3.6}%
\contentsline {subsection}{\numberline {11.3.7}Lichtsnelheid}{443}{subsection.11.3.7}%
\contentsline {subsection}{\numberline {11.3.8}Magneetveld van een spoel}{443}{subsection.11.3.8}%
\contentsline {section}{\numberline {11.4}Statische electromagnetische velden}{443}{section.11.4}%
\contentsline {subsection}{\numberline {11.4.1}Flux van een vectorveld}{443}{subsection.11.4.1}%
\contentsline {subsection}{\numberline {11.4.2}Wet van Gauss}{443}{subsection.11.4.2}%
\contentsline {subsection}{\numberline {11.4.3}Electrisch veld van 2 vlakke platen}{443}{subsection.11.4.3}%
\contentsline {subsection}{\numberline {11.4.4}Electrisch veld van een cilindrische lading}{443}{subsection.11.4.4}%
\contentsline {subsection}{\numberline {11.4.5}Wet van Gauss in differentiele vorm}{444}{subsection.11.4.5}%
\contentsline {subsection}{\numberline {11.4.6}Wet van Gauss voor electrische potentiaal}{444}{subsection.11.4.6}%
\contentsline {subsection}{\numberline {11.4.7}Polarisatie van materie}{444}{subsection.11.4.7}%
\contentsline {subsection}{\numberline {11.4.8}Dielectrische verplaatsing}{444}{subsection.11.4.8}%
\contentsline {subsection}{\numberline {11.4.9}Condensatoren}{445}{subsection.11.4.9}%
\contentsline {subsection}{\numberline {11.4.10}Wet van Ohm}{445}{subsection.11.4.10}%
\contentsline {subsection}{\numberline {11.4.11}Electromotorische spanning}{445}{subsection.11.4.11}%
\contentsline {subsection}{\numberline {11.4.12}Wet van Ampere voor het magnetisch veld}{446}{subsection.11.4.12}%
\contentsline {subsection}{\numberline {11.4.13}Magnetische inductie van een cylinder}{446}{subsection.11.4.13}%
\contentsline {subsection}{\numberline {11.4.14}Wet van Ampere in differentiele vorm}{446}{subsection.11.4.14}%
\contentsline {subsection}{\numberline {11.4.15}Magnetische flux}{446}{subsection.11.4.15}%
\contentsline {subsection}{\numberline {11.4.16}Magnetische veldsterkte}{446}{subsection.11.4.16}%
\contentsline {subsection}{\numberline {11.4.17}Tijdsafhankelijke electromagnetische velden}{447}{subsection.11.4.17}%
\contentsline {subsection}{\numberline {11.4.18}Wet van Faraday}{447}{subsection.11.4.18}%
\contentsline {subsection}{\numberline {11.4.19}Wet van Faraday in differentiele vorm}{447}{subsection.11.4.19}%
\contentsline {subsection}{\numberline {11.4.20}Zelfinductie}{447}{subsection.11.4.20}%
\contentsline {subsection}{\numberline {11.4.21}Energie van een magnetisch veld}{447}{subsection.11.4.21}%
\contentsline {subsection}{\numberline {11.4.22}Ideale transformator}{448}{subsection.11.4.22}%
\contentsline {subsection}{\numberline {11.4.23}Behoud van lading}{448}{subsection.11.4.23}%
\contentsline {subsection}{\numberline {11.4.24}Wet van Maxwell}{448}{subsection.11.4.24}%
\contentsline {subsection}{\numberline {11.4.25}Wet van Maxwell in differentiele vorm}{448}{subsection.11.4.25}%
\contentsline {section}{\numberline {11.5}abook}{449}{section.11.5}%
\contentsline {subsection}{\numberline {11.5.1}Electric charge}{449}{subsection.11.5.1}%
\contentsline {subsection}{\numberline {11.5.2}Electric field}{449}{subsection.11.5.2}%
\contentsline {subsection}{\numberline {11.5.3}Line of charge}{449}{subsection.11.5.3}%
\contentsline {subsection}{\numberline {11.5.4}Gauss's Law}{449}{subsection.11.5.4}%
\contentsline {subsection}{\numberline {11.5.5}Point charge}{450}{subsection.11.5.5}%
\contentsline {subsection}{\numberline {11.5.6}Infinite line charge}{450}{subsection.11.5.6}%
\contentsline {subsection}{\numberline {11.5.7}Electric potential}{450}{subsection.11.5.7}%
\contentsline {subsection}{\numberline {11.5.8}Potential of a point charge}{450}{subsection.11.5.8}%
\contentsline {subsection}{\numberline {11.5.9}Energy}{451}{subsection.11.5.9}%
\contentsline {subsection}{\numberline {11.5.10}Differential form}{451}{subsection.11.5.10}%
\contentsline {subsection}{\numberline {11.5.11}Capacitors and dielectrics}{451}{subsection.11.5.11}%
\contentsline {subsection}{\numberline {11.5.12}Parallel capacitor}{451}{subsection.11.5.12}%
\contentsline {subsection}{\numberline {11.5.13}Cylindrical capacitor}{451}{subsection.11.5.13}%
\contentsline {subsection}{\numberline {11.5.14}Capacitance of an isolated sphere}{452}{subsection.11.5.14}%
\contentsline {subsection}{\numberline {11.5.15}Capacitors in parallel}{452}{subsection.11.5.15}%
\contentsline {subsection}{\numberline {11.5.16}Energy}{452}{subsection.11.5.16}%
\contentsline {subsection}{\numberline {11.5.17}Energy in parallelplate capacitor}{452}{subsection.11.5.17}%
\contentsline {subsection}{\numberline {11.5.18}Energy of an isolated conduction sphere}{452}{subsection.11.5.18}%
\contentsline {subsection}{\numberline {11.5.19}Parallel-plate capacitor with dielectric}{453}{subsection.11.5.19}%
\contentsline {subsection}{\numberline {11.5.20}Energy}{453}{subsection.11.5.20}%
\contentsline {subsection}{\numberline {11.5.21}Gauss Law for Dielectrics}{453}{subsection.11.5.21}%
\contentsline {subsection}{\numberline {11.5.22}Current}{453}{subsection.11.5.22}%
\contentsline {subsection}{\numberline {11.5.23}Resistance}{454}{subsection.11.5.23}%
\contentsline {subsection}{\numberline {11.5.24}Cylindrical conductor}{454}{subsection.11.5.24}%
\contentsline {subsection}{\numberline {11.5.25}Energy}{454}{subsection.11.5.25}%
\contentsline {subsection}{\numberline {11.5.26}Magnetic field}{454}{subsection.11.5.26}%
\contentsline {subsection}{\numberline {11.5.27}Magnetic force on a current}{455}{subsection.11.5.27}%
\contentsline {subsection}{\numberline {11.5.28}Amperes law}{455}{subsection.11.5.28}%
\contentsline {subsection}{\numberline {11.5.29}Parallel conductors}{455}{subsection.11.5.29}%
\contentsline {subsection}{\numberline {11.5.30}Solenoid}{455}{subsection.11.5.30}%
\contentsline {subsection}{\numberline {11.5.31}Biot-Savart Law}{456}{subsection.11.5.31}%
\contentsline {subsection}{\numberline {11.5.32}Faraday's law}{456}{subsection.11.5.32}%
\contentsline {subsection}{\numberline {11.5.33}Inductance}{456}{subsection.11.5.33}%
\contentsline {subsection}{\numberline {11.5.34}Mutual inductance}{457}{subsection.11.5.34}%
\contentsline {subsection}{\numberline {11.5.35}Gauss Law for magnetism}{457}{subsection.11.5.35}%
\contentsline {subsection}{\numberline {11.5.36}Magnetism}{457}{subsection.11.5.36}%
\contentsline {subsection}{\numberline {11.5.37}Maxwell equations}{458}{subsection.11.5.37}%
\contentsline {chapter}{\numberline {12}Electromagnetism}{459}{chapter.12}%
\contentsline {section}{\numberline {12.1}Electric charge and force}{459}{section.12.1}%
\contentsline {section}{\numberline {12.2}Charge of quarks and leptons}{459}{section.12.2}%
\contentsline {section}{\numberline {12.3}Electric Field}{459}{section.12.3}%
\contentsline {subsection}{\numberline {12.3.1}Intro}{459}{subsection.12.3.1}%
\contentsline {subsection}{\numberline {12.3.2}Electric field}{460}{subsection.12.3.2}%
\contentsline {subsection}{\numberline {12.3.3}Electrical field of a long charged line}{461}{subsection.12.3.3}%
\contentsline {subsection}{\numberline {12.3.4}Electric field of a charged ring}{461}{subsection.12.3.4}%
\contentsline {subsection}{\numberline {12.3.5}Electric field of a surface}{461}{subsection.12.3.5}%
\contentsline {subsection}{\numberline {12.3.6}Electric field of a dipole}{462}{subsection.12.3.6}%
\contentsline {subsection}{\numberline {12.3.7}Dipole moment,torque,work}{463}{subsection.12.3.7}%
\contentsline {subsection}{\numberline {12.3.8}Motion in a uniform electric field}{463}{subsection.12.3.8}%
\contentsline {subsection}{\numberline {12.3.9}Gauss' Law}{463}{subsection.12.3.9}%
\contentsline {subsubsection}{Electric Flux}{463}{section*.88}%
\contentsline {subsubsection}{Gauss' Law for electricity ,cfr Maxwell I }{464}{section*.89}%
\contentsline {subsubsection}{Electrical field of a Non-conducting large charged flat sheet}{464}{section*.90}%
\contentsline {subsubsection}{Electrical field of a long charged line}{464}{section*.91}%
\contentsline {subsubsection}{Electrical field of a point charge}{464}{section*.92}%
\contentsline {subsubsection}{Electrical field of spherical shell of charge}{464}{section*.93}%
\contentsline {subsubsection}{Electrical field Outside of a uniform charged sphere}{464}{section*.94}%
\contentsline {subsubsection}{Electrical field inside of a uniform charged sphere}{465}{section*.95}%
\contentsline {subsection}{\numberline {12.3.10} Electric fields in conductors}{465}{subsection.12.3.10}%
\contentsline {subsubsection}{Electrical field of a very large,thick,flat conducting surface}{465}{section*.96}%
\contentsline {subsubsection}{Electrical field of a general charged conductor}{465}{section*.97}%
\contentsline {section}{\numberline {12.4}Electrostatic Potential}{465}{section.12.4}%
\contentsline {subsection}{\numberline {12.4.1}Electrostatic potential energy and potential }{466}{subsection.12.4.1}%
\contentsline {subsubsection}{Electrical potential of a point charge}{466}{section*.98}%
\contentsline {subsubsection}{Electrical potential and superposition}{466}{section*.99}%
\contentsline {subsubsection}{Electrical potential of a large charged flat sheet}{466}{section*.100}%
\contentsline {subsubsection}{Electrical potential of a long charged line}{467}{section*.101}%
\contentsline {subsubsection}{Electrical potential outside of a sphere}{467}{section*.102}%
\contentsline {subsubsection}{Electrical potential inside of a sphere}{467}{section*.103}%
\contentsline {subsubsection}{Integration constant for the sphere}{467}{section*.104}%
\contentsline {subsubsection}{Electrical potential of a uniformly charged circular disk}{467}{section*.105}%
\contentsline {subsubsection}{Electrical potential of a infinite line of charge}{468}{section*.106}%
\contentsline {subsection}{\numberline {12.4.2}Potential in a conductor}{468}{subsection.12.4.2}%
\contentsline {subsection}{\numberline {12.4.3}Electrostatic field as a conservative field, cfr Maxwell III stationary}{468}{subsection.12.4.3}%
\contentsline {subsection}{\numberline {12.4.4}Gradient of the potential}{468}{subsection.12.4.4}%
\contentsline {subsubsection}{Electric field of point charge in polar coordinates}{468}{section*.107}%
\contentsline {subsection}{\numberline {12.4.5}Equipotential surface }{469}{subsection.12.4.5}%
\contentsline {subsection}{\numberline {12.4.6}Potential field of a dipole}{469}{subsection.12.4.6}%
\contentsline {subsection}{\numberline {12.4.7}Mean-Value theorem}{469}{subsection.12.4.7}%
\contentsline {subsection}{\numberline {12.4.8}Potential and charge density of two conducting spheres connected by wire}{469}{subsection.12.4.8}%
\contentsline {section}{\numberline {12.5}Electric energy}{470}{section.12.5}%
\contentsline {subsection}{\numberline {12.5.1}Electron-Volt}{470}{subsection.12.5.1}%
\contentsline {subsection}{\numberline {12.5.2}Potential energy of two point charges}{470}{subsection.12.5.2}%
\contentsline {subsection}{\numberline {12.5.3}Total energy}{470}{subsection.12.5.3}%
\contentsline {subsection}{\numberline {12.5.4}Energy of system 3 point charges}{470}{subsection.12.5.4}%
\contentsline {subsection}{\numberline {12.5.5}Energy of a system of conductors}{470}{subsection.12.5.5}%
\contentsline {subsection}{\numberline {12.5.6}Energy of two large parallel metallic plates}{470}{subsection.12.5.6}%
\contentsline {subsection}{\numberline {12.5.7}Energy of a metallic sphere}{471}{subsection.12.5.7}%
\contentsline {subsection}{\numberline {12.5.8}Energy density}{471}{subsection.12.5.8}%
\contentsline {section}{\numberline {12.6}Capacitors}{471}{section.12.6}%
\contentsline {subsection}{\numberline {12.6.1}Capacitance}{471}{subsection.12.6.1}%
\contentsline {subsection}{\numberline {12.6.2}Capacitance of a conducting or isolated sphere}{471}{subsection.12.6.2}%
\contentsline {subsection}{\numberline {12.6.3}Capacitance of two parallel metallic plates}{472}{subsection.12.6.3}%
\contentsline {subsection}{\numberline {12.6.4}Cylindrical Capacitance}{472}{subsection.12.6.4}%
\contentsline {subsection}{\numberline {12.6.5}Spherical capacitance}{472}{subsection.12.6.5}%
\contentsline {subsection}{\numberline {12.6.6}Capacitors in parallel}{472}{subsection.12.6.6}%
\contentsline {subsection}{\numberline {12.6.7}Capacitors in Serie}{473}{subsection.12.6.7}%
\contentsline {subsection}{\numberline {12.6.8}Energy in capacitors}{473}{subsection.12.6.8}%
\contentsline {subsection}{\numberline {12.6.9}Energy density}{473}{subsection.12.6.9}%
\contentsline {section}{\numberline {12.7}Dielectrics}{473}{section.12.7}%
\contentsline {subsection}{\numberline {12.7.1}Polarisation}{473}{subsection.12.7.1}%
\contentsline {subsection}{\numberline {12.7.2}Relative permittivity}{474}{subsection.12.7.2}%
\contentsline {subsection}{\numberline {12.7.3}Capacitance with dielectric}{474}{subsection.12.7.3}%
\contentsline {subsection}{\numberline {12.7.4}Surface charge density 1}{475}{subsection.12.7.4}%
\contentsline {subsection}{\numberline {12.7.5}Surface charge density 2}{475}{subsection.12.7.5}%
\contentsline {subsection}{\numberline {12.7.6}Surface charge density 3}{475}{subsection.12.7.6}%
\contentsline {subsection}{\numberline {12.7.7}Gauss' Law in Dielectrics,Maxwell I }{476}{subsection.12.7.7}%
\contentsline {subsection}{\numberline {12.7.8}Differential form}{476}{subsection.12.7.8}%
\contentsline {subsection}{\numberline {12.7.9}Electric Displacement field}{476}{subsection.12.7.9}%
\contentsline {subsection}{\numberline {12.7.10}Energy in capacitors with dielectric 1}{477}{subsection.12.7.10}%
\contentsline {subsection}{\numberline {12.7.11}Energy in capacitors with dielectric 2}{477}{subsection.12.7.11}%
\contentsline {subsection}{\numberline {12.7.12}Energy density}{477}{subsection.12.7.12}%
\contentsline {section}{\numberline {12.8}Currents,Resistors, Ohm's Law}{477}{section.12.8}%
\contentsline {subsection}{\numberline {12.8.1}Lineair conduction}{477}{subsection.12.8.1}%
\contentsline {subsection}{\numberline {12.8.2}Electric current}{478}{subsection.12.8.2}%
\contentsline {subsection}{\numberline {12.8.3}Current density}{478}{subsection.12.8.3}%
\contentsline {subsection}{\numberline {12.8.4}Law of charge conservation}{478}{subsection.12.8.4}%
\contentsline {subsection}{\numberline {12.8.5}Resistance,Ohm's Law}{478}{subsection.12.8.5}%
\contentsline {subsection}{\numberline {12.8.6}Resistors in serie}{479}{subsection.12.8.6}%
\contentsline {subsection}{\numberline {12.8.7}Resistors in parallel}{479}{subsection.12.8.7}%
\contentsline {section}{\numberline {12.9}DC Circuits}{479}{section.12.9}%
\contentsline {subsection}{\numberline {12.9.1}Electromotive force}{479}{subsection.12.9.1}%
\contentsline {subsection}{\numberline {12.9.2}Single loop circuits}{480}{subsection.12.9.2}%
\contentsline {subsubsection}{Kirchoff's second rule or loop rule}{480}{section*.108}%
\contentsline {subsection}{\numberline {12.9.3}Kirchoff's first rule}{480}{subsection.12.9.3}%
\contentsline {subsection}{\numberline {12.9.4}Energy in Circuits, Joule Heat}{480}{subsection.12.9.4}%
\contentsline {subsection}{\numberline {12.9.5}RC-Circuit loading}{480}{subsection.12.9.5}%
\contentsline {subsection}{\numberline {12.9.6}RC-Circuit unloading}{481}{subsection.12.9.6}%
\contentsline {section}{\numberline {12.10}RC-circuit with Laplace transform}{482}{section.12.10}%
\contentsline {section}{\numberline {12.11}Electrostatics,Magnetic force and field}{483}{section.12.11}%
\contentsline {subsection}{\numberline {12.11.1}Magnetic force on one charge on another for parallel velocities}{483}{subsection.12.11.1}%
\contentsline {subsection}{\numberline {12.11.2}Magnetic force in general}{483}{subsection.12.11.2}%
\contentsline {subsection}{\numberline {12.11.3}Magnetic force versus Electric force for parallel velocities}{483}{subsection.12.11.3}%
\contentsline {subsection}{\numberline {12.11.4}Definition magnetic field}{483}{subsection.12.11.4}%
\contentsline {subsection}{\numberline {12.11.5}SOURCE 1: Magnetic field of a point charge}{483}{subsection.12.11.5}%
\contentsline {subsection}{\numberline {12.11.6}Magnetic flux}{484}{subsection.12.11.6}%
\contentsline {subsection}{\numberline {12.11.7}SOURCE 0 :Gauss law for magnetism , Maxwell II}{484}{subsection.12.11.7}%
\contentsline {subsection}{\numberline {12.11.8}Superposition}{484}{subsection.12.11.8}%
\contentsline {subsection}{\numberline {12.11.9}SOURCE 2A :Law of Biot-Savart : Magnetic field of a current on a wire}{484}{subsection.12.11.9}%
\contentsline {subsection}{\numberline {12.11.10}Magnetic field of a long straight wire}{484}{subsection.12.11.10}%
\contentsline {subsection}{\numberline {12.11.11}Magnetic field of a square loop}{485}{subsection.12.11.11}%
\contentsline {subsection}{\numberline {12.11.12}Magnetic field of a circular loop}{485}{subsection.12.11.12}%
\contentsline {subsection}{\numberline {12.11.13}Magnetic dipole}{485}{subsection.12.11.13}%
\contentsline {subsection}{\numberline {12.11.14}SOURCE 2B: Ampere's Law,Maxwell IV}{486}{subsection.12.11.14}%
\contentsline {subsection}{\numberline {12.11.15}Magnetic field of a long wire}{486}{subsection.12.11.15}%
\contentsline {subsection}{\numberline {12.11.16}Magnetic field of a long cylindrical wire}{486}{subsection.12.11.16}%
\contentsline {subsection}{\numberline {12.11.17}Solenoids}{486}{subsection.12.11.17}%
\contentsline {subsection}{\numberline {12.11.18}Toroids}{487}{subsection.12.11.18}%
\contentsline {section}{\numberline {12.12}Magnetic force on a particle, magnetic force in a wire,motion}{487}{section.12.12}%
\contentsline {subsection}{\numberline {12.12.1}FORCE 1:Force on a moving particle !}{487}{subsection.12.12.1}%
\contentsline {subsection}{\numberline {12.12.2}Lorentz equation}{487}{subsection.12.12.2}%
\contentsline {subsection}{\numberline {12.12.3}Cyclotron frequency and energy of a particle in a uniform magnetic field}{487}{subsection.12.12.3}%
\contentsline {subsection}{\numberline {12.12.4}Speed of a circular particle in crossed fields}{487}{subsection.12.12.4}%
\contentsline {subsection}{\numberline {12.12.5}Mass spectrometer}{488}{subsection.12.12.5}%
\contentsline {subsection}{\numberline {12.12.6}Electrical field of the Hall effect}{488}{subsection.12.12.6}%
\contentsline {subsection}{\numberline {12.12.7}FORCE 2: Force on a wire !}{488}{subsection.12.12.7}%
\contentsline {subsection}{\numberline {12.12.8}Force on two parallel wires}{488}{subsection.12.12.8}%
\contentsline {subsection}{\numberline {12.12.9}Torque on a current loop}{489}{subsection.12.12.9}%
\contentsline {subsection}{\numberline {12.12.10}Potential energy of a magnetic dipole}{489}{subsection.12.12.10}%
\contentsline {section}{\numberline {12.13}Electrodynamics,electromagnetic induction}{489}{section.12.13}%
\contentsline {subsection}{\numberline {12.13.1}Rod on rails}{489}{subsection.12.13.1}%
\contentsline {subsection}{\numberline {12.13.2}Motional emf}{490}{subsection.12.13.2}%
\contentsline {subsection}{\numberline {12.13.3}Magnetic flux reminder}{490}{subsection.12.13.3}%
\contentsline {subsection}{\numberline {12.13.4}Faraday's Law of induction, Maxwell III}{490}{subsection.12.13.4}%
\contentsline {subsection}{\numberline {12.13.5}Lenz law}{490}{subsection.12.13.5}%
\contentsline {subsubsection}{Induced electric field by time-varying magnetic fields}{490}{section*.109}%
\contentsline {subsection}{\numberline {12.13.6}Rectangular coil}{490}{subsection.12.13.6}%
\contentsline {subsection}{\numberline {12.13.7}Mutual inductance}{491}{subsection.12.13.7}%
\contentsline {subsubsection}{Inductance in general }{491}{section*.110}%
\contentsline {subsubsection}{Inductance for two current loops}{491}{section*.111}%
\contentsline {subsubsection}{Transformer}{491}{section*.112}%
\contentsline {subsection}{\numberline {12.13.8}Mutual inductance example}{492}{subsection.12.13.8}%
\contentsline {subsection}{\numberline {12.13.9}Self-induction of solenoid or a close packed coil}{492}{subsection.12.13.9}%
\contentsline {subsection}{\numberline {12.13.10}LR circuits}{493}{subsection.12.13.10}%
\contentsline {subsection}{\numberline {12.13.11}LRC-circuits}{493}{subsection.12.13.11}%
\contentsline {subsection}{\numberline {12.13.12}Energy in a magnetic field}{493}{subsection.12.13.12}%
\contentsline {subsection}{\numberline {12.13.13}Energy in a solenoid}{493}{subsection.12.13.13}%
\contentsline {subsection}{\numberline {12.13.14}Energy density}{494}{subsection.12.13.14}%
\contentsline {section}{\numberline {12.14}Ampere's Law in magnetized media}{494}{section.12.14}%
\contentsline {section}{\numberline {12.15}Maxell's equations sources}{495}{section.12.15}%
\contentsline {section}{\numberline {12.16}Maxwell's equations}{495}{section.12.16}%
\contentsline {section}{\numberline {12.17}THE-END}{495}{section.12.17}%
\contentsline {chapter}{\numberline {13}Cosmology: The early universe}{496}{chapter.13}%
\contentsline {section}{\numberline {13.1}Nonrelativistic Doppler shift}{496}{section.13.1}%
\contentsline {subsubsection}{Fixed observer and moving source}{496}{section*.113}%
\contentsline {subsubsection}{Fixed source, moving observer away from source}{496}{section*.114}%
\contentsline {section}{\numberline {13.2}Relativistic Doppler shift}{497}{section.13.2}%
\contentsline {subsubsection}{Time dilation}{497}{section*.115}%
\contentsline {subsubsection}{Fixed observer and a source moving away from observer}{497}{section*.116}%
\contentsline {subsubsection}{Fixed source and a observer moving away from the source}{497}{section*.117}%
\contentsline {subsubsection}{Relativistic redshift}{498}{section*.118}%
\contentsline {section}{\numberline {13.3}Homogeneous expanding universe}{498}{section.13.3}%
\contentsline {subsubsection}{Comoving coordinates}{498}{section*.119}%
\contentsline {subsubsection}{Derivation of Hubble Law}{498}{section*.120}%
\contentsline {subsubsection}{Motion of lightrays}{498}{section*.121}%
\contentsline {subsubsection}{Cosmological redshift}{499}{section*.122}%
\contentsline {subsubsection}{Gravitation as a field}{499}{section*.123}%
\contentsline {subsubsection}{Laplace equation}{499}{section*.124}%
\contentsline {section}{\numberline {13.4}Calculating the differential equation}{500}{section.13.4}%
\contentsline {subsubsection}{Uniform distribution of mass}{500}{section*.125}%
\contentsline {subsubsection}{Definition of E}{501}{section*.126}%
\contentsline {subsubsection}{Friendmann equations and definition of K}{501}{section*.127}%
\contentsline {subsubsection}{Normalisation \& conventions}{502}{section*.128}%
\contentsline {subsubsection}{Solutions}{502}{section*.129}%
\contentsline {subsubsection}{Hubble expansion rate}{502}{section*.130}%
\contentsline {subsubsection}{Omega}{502}{section*.131}%
\contentsline {section}{\numberline {13.5}Solutions}{503}{section.13.5}%
\contentsline {subsubsection}{E=0}{503}{section*.132}%
\contentsline {subsubsection}{E=0,Age of a matter dominated flat universe}{503}{section*.133}%
\contentsline {subsubsection}{E=0,Horizon distance in a matter dominated universe}{504}{section*.134}%
\contentsline {section}{\numberline {13.6}Closed universe}{505}{section.13.6}%
\contentsline {subsubsection}{E<0}{505}{section*.135}%
\contentsline {subsubsection}{E<0,Solution}{505}{section*.136}%
\contentsline {subsubsection}{E<0,age}{507}{section*.137}%
\contentsline {section}{\numberline {13.7}Open universe}{508}{section.13.7}%
\contentsline {subsubsection}{E>0}{508}{section*.138}%
\contentsline {subsubsection}{Age}{508}{section*.139}%
\contentsline {section}{\numberline {13.8}Non-euclidean spaces}{509}{section.13.8}%
\contentsline {subsubsection}{Felix Klein,Coordinate geometry}{509}{section*.140}%
\contentsline {subsubsection}{Gauss}{509}{section*.141}%
\contentsline {subsubsection}{General relativity}{510}{section*.142}%
\contentsline {subsubsection}{Electrogmatism as an action at a distance theory. Feynmann lectures}{510}{section*.143}%
\contentsline {subsubsection}{K>0,Closed unvierse}{510}{section*.144}%
\contentsline {subsubsection}{Surface on sphere}{510}{section*.145}%
\contentsline {subsubsection}{Geometric}{510}{section*.146}%
\contentsline {subsubsection}{Algebraic}{510}{section*.147}%
\contentsline {subsubsection}{3 Dimensional sphere}{511}{section*.148}%
\contentsline {subsubsection}{GR}{512}{section*.149}%
\contentsline {subsubsection}{Proof of homogeneity for a closed universe}{513}{section*.150}%
\contentsline {subsubsection}{Theorem}{514}{section*.151}%
\contentsline {subsubsection}{K<0,Open universe}{514}{section*.152}%
\contentsline {subsubsection}{Size of the universes}{514}{section*.153}%
\contentsline {subsubsection}{Gauss-Bolyai-Lobachevsky geometry}{514}{section*.154}%
\contentsline {section}{\numberline {13.9}Spacetime metric}{514}{section.13.9}%
\contentsline {subsection}{\numberline {13.9.1}Spacetime}{514}{subsection.13.9.1}%
\contentsline {subsection}{\numberline {13.9.2}GR generalisation}{515}{subsection.13.9.2}%
\contentsline {subsection}{\numberline {13.9.3}Equivalence principle}{515}{subsection.13.9.3}%
\contentsline {subsection}{\numberline {13.9.4}Free falling observers}{515}{subsection.13.9.4}%
\contentsline {subsection}{\numberline {13.9.5}Robertson Walker metric}{515}{subsection.13.9.5}%
\contentsline {subsection}{\numberline {13.9.6}Motion in an arbitrary G.R. metric}{516}{subsection.13.9.6}%
\contentsline {section}{\numberline {13.10}Brachistochrone}{519}{section.13.10}%
\contentsline {section}{\numberline {13.11}THE-END}{519}{section.13.11}%
\contentsline {chapter}{\numberline {14}Demo1}{520}{chapter.14}%
\contentsline {section}{\numberline {14.1}Introduction}{520}{section.14.1}%
\contentsline {chapter}{\numberline {A}First appendix}{I}{appendix.A}%
\contentsline {section}{\numberline {A.1}section}{I}{section.A.1}%
\contentsline {chapter}{\numberline {B}Second appendix}{II}{appendix.B}%
\contentsline {section}{\numberline {B.1}section}{II}{section.B.1}%
